src/tests/resources/operation/seq/firmem_rw/trace_vtor.vcd
$version Generated by VerilatedVcd $end
$date Sat May 17 14:05:37 2025
 $end
$timescale   1ps $end

 $scope module Foo $end
  $var wire  2 * addr_r [1:0] $end
  $var wire  2 , addr_rw [1:0] $end
  $var wire  2 + addr_w [1:0] $end
  $var wire  1 ' clk $end
  $var wire  8 ) data_in_rw [7:0] $end
  $var wire  8 ( data_in_w [7:0] $end
  $var wire  1 . enable_r $end
  $var wire  1 0 enable_rw $end
  $var wire  1 / enable_w $end
  $var wire  1 - mode $end
  $var wire  8 1 read_out [7:0] $end
  $var wire  8 2 rw_out [7:0] $end
  $scope module Foo $end
   $var wire  2 * addr_r [1:0] $end
   $var wire  2 , addr_rw [1:0] $end
   $var wire  2 + addr_w [1:0] $end
   $var wire  1 ' clk $end
   $var wire  8 ) data_in_rw [7:0] $end
   $var wire  8 ( data_in_w [7:0] $end
   $var wire  1 . enable_r $end
   $var wire  1 0 enable_rw $end
   $var wire  1 / enable_w $end
   $var wire  1 - mode $end
   $var wire  8 1 read_out [7:0] $end
   $var wire  8 2 rw_out [7:0] $end
   $scope module memory_ext $end
    $var wire  8 # Memory(0) [7:0] $end
    $var wire  8 $ Memory(1) [7:0] $end
    $var wire  8 % Memory(2) [7:0] $end
    $var wire  8 & Memory(3) [7:0] $end
    $var wire  2 * R0_addr [1:0] $end
    $var wire  1 ' R0_clk $end
    $var wire  8 1 R0_data [7:0] $end
    $var wire  1 . R0_en $end
    $var wire  2 , RW0_addr [1:0] $end
    $var wire  1 ' RW0_clk $end
    $var wire  1 0 RW0_en $end
    $var wire  8 2 RW0_rdata [7:0] $end
    $var wire  8 ) RW0_wdata [7:0] $end
    $var wire  1 - RW0_wmode $end
    $var wire  2 + W0_addr [1:0] $end
    $var wire  1 ' W0_clk $end
    $var wire  8 ( W0_data [7:0] $end
    $var wire  1 / W0_en $end
   $upscope $end
  $upscope $end
 $upscope $end
$enddefinitions $end


#0
b00101101 #
b00000000 $
b01000010 %
b00000000 &
1'
b00101101 (
b01000010 )
b00 *
b00 +
b10 ,
1-
0.
1/
10
b00000000 1
b00000000 2
#1
0'
b00000000 (
b00000000 )
b00 ,
0-
0/
00
#2
1'
b10 *
b11 ,
1.
10
b01000010 1
#3
0'
b00 *
b00 ,
0.
00
b00000000 1
#4
b01010100 $
b11111001 %
1'
b01010100 (
b11111001 )
b01 +
b10 ,
1-
1/
10
#5
0'
b00000000 (
b00000000 )
b00 +
b00 ,
0-
0/
00
#6
1'
b01 ,
1.
10
b00101101 1
b01010100 2
#7
0'
b00 ,
0.
00
b00000000 1
b00000000 2
#8
b01001010 $
b10010011 %
1'
b01001010 (
b10010011 )
b01 +
b10 ,
1-
1/
10
#9
0'
b00000000 (
b00000000 )
b00 +
b00 ,
0-
0/
00
#10
1'
b01 *
b10 ,
1.
10
b01001010 1
b10010011 2
#11
0'
b00 *
b00 ,
0.
00
b00000000 1
b00000000 2
#12
b11110010 #
b00110011 $
1'
b11110010 (
b00110011 )
b01 ,
1-
1/
10
#13
0'
b00000000 (
b00000000 )
b00 ,
0-
0/
00
#14
1'
b11 *
1.
10
b11110010 2
#15
0'
b00 *
0.
00
b00000000 2
#16
b11001110 #
b01010111 &
1'
b01010111 (
b11001110 )
b11 +
1-
1/
10
#17
0'
b00000000 (
b00000000 )
b00 +
0-
0/
00
#18
1'
b11 *
1.
10
b01010111 1
b11001110 2
#19
0'
b00 *
0.
00
b00000000 1
b00000000 2
#20
b11011000 $
b11111110 %
1'
b11011000 (
b11111110 )
b01 +
b10 ,
1-
1/
10
#21
0'
b00000000 (
b00000000 )
b00 +
b00 ,
0-
0/
00
#22
1'
b01 *
b10 ,
1.
10
b11011000 1
b11111110 2
#23
0'
b00 *
b00 ,
0.
00
b00000000 1
b00000000 2
#24
b11111101 $
b10011100 %
1'
b11111101 (
b10011100 )
b01 +
b10 ,
1-
1/
10
#25
0'
b00000000 (
b00000000 )
b00 +
b00 ,
0-
0/
00
#26
1'
b10 *
b11 ,
1.
10
b10011100 1
b01010111 2
#27
0'
b00 *
b00 ,
0.
00
b00000000 1
b00000000 2
#28
b10010001 #
b10110101 &
1'
b10110101 (
b10010001 )
b11 +
1-
1/
10
#29
0'
b00000000 (
b00000000 )
b00 +
0-
0/
00
#30
1'
b01 ,
1.
10
b10010001 1
b11111101 2
#31
0'
b00 ,
0.
00
b00000000 1
b00000000 2
#32
b00001101 $
b01000101 %
1'
b00001101 (
b01000101 )
b01 +
b10 ,
1-
1/
10
#33
0'
b00000000 (
b00000000 )
b00 +
b00 ,
0-
0/
00
#34
1'
b01 *
b10 ,
1.
10
b00001101 1
b01000101 2
#35
0'
b00 *
b00 ,
0.
00
b00000000 1
b00000000 2
#36
b00000100 %
b01101011 &
1'
b00000100 (
b01101011 )
b10 +
b11 ,
1-
1/
10
#37
0'
b00000000 (
b00000000 )
b00 +
b00 ,
0-
0/
00
#38
1'
b10 *
b11 ,
1.
10
b00000100 1
b01101011 2
#39
0'
b00 *
b00 ,
0.
00
b00000000 1
b00000000 2
#40
b00001011 #
b00010111 $
1'
b00001011 (
b00010111 )
b01 ,
1-
1/
10
#41
0'
b00000000 (
b00000000 )
b00 ,
0-
0/
00
#42
1'
b01 *
b10 ,
1.
10
b00010111 1
b00000100 2
#43
0'
b00 *
b00 ,
0.
00
b00000000 1
b00000000 2
#44
b11010001 $
b11001101 %
1'
b11010001 (
b11001101 )
b01 +
b10 ,
1-
1/
10
#45
0'
b00000000 (
b00000000 )
b00 +
b00 ,
0-
0/
00
#46
1'
b11 *
1.
10
b01101011 1
b00001011 2
#47
0'
b00 *
0.
00
b00000000 1
b00000000 2
#48
b00100111 #
b01111101 $
1'
b00100111 (
b01111101 )
b01 ,
1-
1/
10
#49
0'
b00000000 (
b00000000 )
b00 ,
0-
0/
00
#50
1'
b10 *
b11 ,
1.
10
b11001101 1
b01101011 2
#51
0'
b00 *
b00 ,
0.
00
b00000000 1
b00000000 2
#52
b10100110 %
b11101111 &
1'
b10100110 (
b11101111 )
b10 +
b11 ,
1-
1/
10
#53
0'
b00000000 (
b00000000 )
b00 +
b00 ,
0-
0/
00
#54
1'
b01 ,
1.
10
b00100111 1
b01111101 2
#55
0'
b00 ,
0.
00
b00000000 1
b00000000 2
#56
b11011110 %
b10100011 &
1'
b11011110 (
b10100011 )
b10 +
b11 ,
1-
1/
10
#57
0'
b00000000 (
b00000000 )
b00 +
b00 ,
0-
0/
00
#58
1'
b11 *
1.
10
b10100011 1
b00100111 2
#59
0'
b00 *
0.
00
b00000000 1
b00000000 2
#60
b01111110 $
b10110000 %
1'
b01111110 (
b10110000 )
b01 +
b10 ,
1-
1/
10
#61
0'
b00000000 (
b00000000 )
b00 +
b00 ,
0-
0/
00
#62
1'
b10 *
b11 ,
1.
10
b10110000 1
b10100011 2
#63
0'
b00 *
b00 ,
0.
00
b00000000 1
b00000000 2
#64
b11100111 #
b11000000 $
1'
b11100111 (
b11000000 )
b01 ,
1-
1/
10
#65
0'
b00000000 (
b00000000 )
b00 ,
0-
0/
00
#66
1'
b11 *
1.
10
b10100011 1
b11100111 2
#67
0'
b00 *
0.
00
b00000000 1
b00000000 2
#68
b10101110 $
b01100011 %
1'
b10101110 (
b01100011 )
b01 +
b10 ,
1-
1/
10
#69
0'
b00000000 (
b00000000 )
b00 +
b00 ,
0-
0/
00
#70
1'
b10 *
b11 ,
1.
10
b01100011 1
b10100011 2
#71
0'
b00 *
b00 ,
0.
00
b00000000 1
b00000000 2
#72
b01000011 $
b01000110 %
1'
b01000011 (
b01000110 )
b01 +
b10 ,
1-
1/
10
#73
0'
b00000000 (
b00000000 )
b00 +
b00 ,
0-
0/
00
#74
1'
b01 ,
1.
10
b11100111 1
b01000011 2
#75
0'
b00 ,
0.
00
b00000000 1
b00000000 2
#76
b00010000 %
b00011011 &
1'
b00010000 (
b00011011 )
b10 +
b11 ,
1-
1/
10
#77
0'
b00000000 (
b00000000 )
b00 +
b00 ,
0-
0/
00
#78
1'
b01 *
b10 ,
1.
10
b01000011 1
b00010000 2
#79
0'
b00 *
b00 ,
0.
00
b00000000 1
b00000000 2
#80
b10010101 %
b01010110 &
1'
b10010101 (
b01010110 )
b10 +
b11 ,
1-
1/
10
#81
0'
b00000000 (
b00000000 )
b00 +
b00 ,
0-
0/
00
#82
1'
b10 *
b11 ,
1.
10
b10010101 1
b01010110 2
#83
0'
b00 *
b00 ,
0.
00
b00000000 1
b00000000 2
#84
b11101010 #
b11100010 $
1'
b11101010 (
b11100010 )
b01 ,
1-
1/
10
#85
0'
b00000000 (
b00000000 )
b00 ,
0-
0/
00
#86
1'
b01 *
b10 ,
1.
10
b11100010 1
b10010101 2
#87
0'
b00 *
b00 ,
0.
00
b00000000 1
b00000000 2
#88
b10111011 $
b00100000 %
1'
b10111011 (
b00100000 )
b01 +
b10 ,
1-
1/
10
#89
0'
b00000000 (
b00000000 )
b00 +
b00 ,
0-
0/
00
#90
1'
b10 *
b11 ,
1.
10
b00100000 1
b01010110 2
#91
0'
b00 *
b00 ,
0.
00
b00000000 1
b00000000 2
#92
b01011011 %
b11001011 &
1'
b01011011 (
b11001011 )
b10 +
b11 ,
1-
1/
10
#93
0'
b00000000 (
b00000000 )
b00 +
b00 ,
0-
0/
00
#94
1'
b11 *
1.
10
b11001011 1
b11101010 2
#95
0'
b00 *
0.
00
b00000000 1
b00000000 2
#96
b11000111 %
b11011010 &
1'
b11000111 (
b11011010 )
b10 +
b11 ,
1-
1/
10
#97
0'
b00000000 (
b00000000 )
b00 +
b00 ,
0-
0/
00
#98
1'
b10 *
b11 ,
1.
10
b11000111 1
b11011010 2
#99
0'
b00 *
b00 ,
0.
00
b00000000 1
b00000000 2
#100
b11000001 %
b11110111 &
1'
b11000001 (
b11110111 )
b10 +
b11 ,
1-
1/
10
#101
0'
b00000000 (
b00000000 )
b00 +
b00 ,
0-
0/
00
#102
1'
b01 ,
1.
10
b11101010 1
b10111011 2
#103
0'
b00 ,
0.
00
b00000000 1
b00000000 2
#104
b10110100 %
b00001111 &
1'
b10110100 (
b00001111 )
b10 +
b11 ,
1-
1/
10
#105
0'
b00000000 (
b00000000 )
b00 +
b00 ,
0-
0/
00
#106
1'
b01 *
b10 ,
1.
10
b10111011 1
b10110100 2
#107
0'
b00 *
b00 ,
0.
00
b00000000 1
b00000000 2
#108
b10000010 #
b11011100 $
1'
b10000010 (
b11011100 )
b01 ,
1-
1/
10
#109
0'
b00000000 (
b00000000 )
b00 ,
0-
0/
00
#110
1'
b01 *
b10 ,
1.
10
b11011100 1
b10110100 2
#111
0'
b00 *
b00 ,
0.
00
b00000000 1
b00000000 2
#112
b01011101 $
b01111011 %
1'
b01011101 (
b01111011 )
b01 +
b10 ,
1-
1/
10
#113
0'
b00000000 (
b00000000 )
b00 +
b00 ,
0-
0/
00
#114
1'
b01 ,
1.
10
b10000010 1
b01011101 2
#115
0'
b00 ,
0.
00
b00000000 1
b00000000 2
#116
b01111111 #
b10110111 &
1'
b10110111 (
b01111111 )
b11 +
1-
1/
10
#117
0'
b00000000 (
b00000000 )
b00 +
0-
0/
00
#118
1'
b11 *
1.
10
b10110111 1
b01111111 2
#119
0'
b00 *
0.
00
b00000000 1
b00000000 2
#120
b10011001 $
b01111100 %
1'
b10011001 (
b01111100 )
b01 +
b10 ,
1-
1/
10
#121
0'
b00000000 (
b00000000 )
b00 +
b00 ,
0-
0/
00
#122
1'
b11 *
1.
10
b10110111 1
b01111111 2
#123
0'
b00 *
0.
00
b00000000 1
b00000000 2
#124
b00101001 %
b00010000 &
1'
b00101001 (
b00010000 )
b10 +
b11 ,
1-
1/
10
#125
0'
b00000000 (
b00000000 )
b00 +
b00 ,
0-
0/
00
#126
1'
b11 *
1.
10
b00010000 1
b01111111 2
#127
0'
b00 *
0.
00
b00000000 1
b00000000 2
#128
b01110110 #
b00111101 $
1'
b01110110 (
b00111101 )
b01 ,
1-
1/
10
#129
0'
b00000000 (
b00000000 )
b00 ,
0-
0/
00
#130
1'
b01 *
b10 ,
1.
10
b00111101 1
b00101001 2
#131
0'
b00 *
b00 ,
0.
00
b00000000 1
b00000000 2
#132
b01000011 %
b10000010 &
1'
b01000011 (
b10000010 )
b10 +
b11 ,
1-
1/
10
#133
0'
b00000000 (
b00000000 )
b00 +
b00 ,
0-
0/
00
#134
1'
b11 *
1.
10
b10000010 1
b01110110 2
#135
0'
b00 *
0.
00
b00000000 1
b00000000 2
#136
b10110100 #
b11001011 &
1'
b11001011 (
b10110100 )
b11 +
1-
1/
10
#137
0'
b00000000 (
b00000000 )
b00 +
0-
0/
00
#138
1'
b01 ,
1.
10
b10110100 1
b00111101 2
#139
0'
b00 ,
0.
00
b00000000 1
b00000000 2
#140
b11001010 %
b01110001 &
1'
b11001010 (
b01110001 )
b10 +
b11 ,
1-
1/
10
#141
0'
b00000000 (
b00000000 )
b00 +
b00 ,
0-
0/
00
#142
1'
b10 *
b11 ,
1.
10
b11001010 1
b01110001 2
#143
0'
b00 *
b00 ,
0.
00
b00000000 1
b00000000 2
#144
b00101101 $
b10111100 %
1'
b00101101 (
b10111100 )
b01 +
b10 ,
1-
1/
10
#145
0'
b00000000 (
b00000000 )
b00 +
b00 ,
0-
0/
00
#146
1'
b10 *
b11 ,
1.
10
b10111100 1
b01110001 2
#147
0'
b00 *
b00 ,
0.
00
b00000000 1
b00000000 2
#148
b11111000 #
b01111010 $
1'
b11111000 (
b01111010 )
b01 ,
1-
1/
10
#149
0'
b00000000 (
b00000000 )
b00 ,
0-
0/
00
#150
1'
b01 *
b10 ,
1.
10
b01111010 1
b10111100 2
#151
0'
b00 *
b00 ,
0.
00
b00000000 1
b00000000 2
#152
b01011110 #
b11011001 $
1'
b01011110 (
b11011001 )
b01 ,
1-
1/
10
#153
0'
b00000000 (
b00000000 )
b00 ,
0-
0/
00
#154
1'
b01 ,
1.
10
b01011110 1
b11011001 2
#155
0'
b00 ,
0.
00
b00000000 1
b00000000 2
#156
b11000111 #
b11100010 $
1'
b11000111 (
b11100010 )
b01 ,
1-
1/
10
#157
0'
b00000000 (
b00000000 )
b00 ,
0-
0/
00
#158
1'
b10 *
b11 ,
1.
10
b10111100 1
b01110001 2
#159
0'
b00 *
b00 ,
0.
00
b00000000 1
b00000000 2
#160
b10011000 %
b01010000 &
1'
b10011000 (
b01010000 )
b10 +
b11 ,
1-
1/
10
#161
0'
b00000000 (
b00000000 )
b00 +
b00 ,
0-
0/
00
#162
1'
b11 *
1.
10
b01010000 1
b11000111 2
#163
0'
b00 *
0.
00
b00000000 1
b00000000 2
#164
b01111100 #
b10111100 &
1'
b10111100 (
b01111100 )
b11 +
1-
1/
10
#165
0'
b00000000 (
b00000000 )
b00 +
0-
0/
00
#166
1'
b01 ,
1.
10
b01111100 1
b11100010 2
#167
0'
b00 ,
0.
00
b00000000 1
b00000000 2
#168
b11111010 %
b00111111 &
1'
b11111010 (
b00111111 )
b10 +
b11 ,
1-
1/
10
#169
0'
b00000000 (
b00000000 )
b00 +
b00 ,
0-
0/
00
#170
1'
b11 *
1.
10
b00111111 1
b01111100 2
#171
0'
b00 *
0.
00
b00000000 1
b00000000 2
#172
b10111100 #
b01110100 &
1'
b01110100 (
b10111100 )
b11 +
1-
1/
10
#173
0'
b00000000 (
b00000000 )
b00 +
0-
0/
00
#174
1'
b01 ,
1.
10
b10111100 1
b11100010 2
#175
0'
b00 ,
0.
00
b00000000 1
b00000000 2
#176
b10011111 #
b00100111 &
1'
b00100111 (
b10011111 )
b11 +
1-
1/
10
#177
0'
b00000000 (
b00000000 )
b00 +
0-
0/
00
#178
1'
b11 *
1.
10
b00100111 1
b10011111 2
#179
0'
b00 *
0.
00
b00000000 1
b00000000 2
#180
b01010010 #
b11101101 &
1'
b11101101 (
b01010010 )
b11 +
1-
1/
10
#181
0'
b00000000 (
b00000000 )
b00 +
0-
0/
00
#182
1'
b10 *
b11 ,
1.
10
b11111010 1
b11101101 2
#183
0'
b00 *
b00 ,
0.
00
b00000000 1
b00000000 2
#184
b00011100 #
b10011001 $
1'
b00011100 (
b10011001 )
b01 ,
1-
1/
10
#185
0'
b00000000 (
b00000000 )
b00 ,
0-
0/
00
#186
1'
b01 *
b10 ,
1.
10
b10011001 1
b11111010 2
#187
0'
b00 *
b00 ,
0.
00
b00000000 1
b00000000 2
#188
b11011110 %
b01000101 &
1'
b11011110 (
b01000101 )
b10 +
b11 ,
1-
1/
10
#189
0'
b00000000 (
b00000000 )
b00 +
b00 ,
0-
0/
00
#190
1'
b10 *
b11 ,
1.
10
b11011110 1
b01000101 2
#191
0'
b00 *
b00 ,
0.
00
b00000000 1
b00000000 2
#192
b01100001 $
b11001001 %
1'
b01100001 (
b11001001 )
b01 +
b10 ,
1-
1/
10
#193
0'
b00000000 (
b00000000 )
b00 +
b00 ,
0-
0/
00
#194
1'
b11 *
1.
10
b01000101 1
b00011100 2
#195
0'
b00 *
0.
00
b00000000 1
b00000000 2
#196
b00100111 %
b01101111 &
1'
b00100111 (
b01101111 )
b10 +
b11 ,
1-
1/
10
#197
0'
b00000000 (
b00000000 )
b00 +
b00 ,
0-
0/
00
#198
1'
b11 *
1.
10
b01101111 1
b00011100 2
#199
0'
b00 *
0.
00
b00000000 1
b00000000 2
#200
b00100111 #
b01001010 $
1'
b00100111 (
b01001010 )
b01 ,
1-
1/
10
#201
0'
b00000000 (
b00000000 )
b00 ,
0-
0/
00
#202
1'
b01 ,
1.
10
b00100111 1
b01001010 2
#203
0'
b00 ,
0.
00
b00000000 1
b00000000 2
#204
b00101111 #
b01110011 $
1'
b00101111 (
b01110011 )
b01 ,
1-
1/
10
#205
0'
b00000000 (
b00000000 )
b00 ,
0-
0/
00
#206
1'
b10 *
b11 ,
1.
10
b00100111 1
b01101111 2
#207
0'
b00 *
b00 ,
0.
00
b00000000 1
b00000000 2
#208
b11000010 #
b10010100 $
1'
b11000010 (
b10010100 )
b01 ,
1-
1/
10
#209
0'
b00000000 (
b00000000 )
b00 ,
0-
0/
00
#210
1'
b01 *
b10 ,
1.
10
b10010100 1
b00100111 2
#211
0'
b00 *
b00 ,
0.
00
b00000000 1
b00000000 2
#212
b00100111 #
b00110011 $
1'
b00100111 (
b00110011 )
b01 ,
1-
1/
10
#213
0'
b00000000 (
b00000000 )
b00 ,
0-
0/
00
#214
1'
b01 ,
1.
10
b00100111 1
b00110011 2
#215
0'
b00 ,
0.
00
b00000000 1
b00000000 2
#216
b01000011 $
b01010000 %
1'
b01000011 (
b01010000 )
b01 +
b10 ,
1-
1/
10
#217
0'
b00000000 (
b00000000 )
b00 +
b00 ,
0-
0/
00
#218
1'
b11 *
1.
10
b01101111 1
b00100111 2
#219
0'
b00 *
0.
00
b00000000 1
b00000000 2
#220
b01110110 $
b11110110 %
1'
b01110110 (
b11110110 )
b01 +
b10 ,
1-
1/
10
#221
0'
b00000000 (
b00000000 )
b00 +
b00 ,
0-
0/
00
#222
1'
b10 *
b11 ,
1.
10
b11110110 1
b01101111 2
#223
0'
b00 *
b00 ,
0.
00
b00000000 1
b00000000 2
#224
b01110100 #
b11101100 &
1'
b11101100 (
b01110100 )
b11 +
1-
1/
10
#225
0'
b00000000 (
b00000000 )
b00 +
0-
0/
00
#226
1'
b01 *
b10 ,
1.
10
b01110110 1
b11110110 2
#227
0'
b00 *
b00 ,
0.
00
b00000000 1
b00000000 2
#228
b11000111 #
b00110100 &
1'
b00110100 (
b11000111 )
b11 +
1-
1/
10
#229
0'
b00000000 (
b00000000 )
b00 +
0-
0/
00
#230
1'
b10 *
b11 ,
1.
10
b11110110 1
b00110100 2
#231
0'
b00 *
b00 ,
0.
00
b00000000 1
b00000000 2
#232
b00110001 %
b00110011 &
1'
b00110001 (
b00110011 )
b10 +
b11 ,
1-
1/
10
#233
0'
b00000000 (
b00000000 )
b00 +
b00 ,
0-
0/
00
#234
1'
b10 *
b11 ,
1.
10
b00110001 1
b00110011 2
#235
0'
b00 *
b00 ,
0.
00
b00000000 1
b00000000 2
#236
b10010001 #
b01010110 &
1'
b01010110 (
b10010001 )
b11 +
1-
1/
10
#237
0'
b00000000 (
b00000000 )
b00 +
0-
0/
00
#238
1'
b10 *
b11 ,
1.
10
b00110001 1
b01010110 2
#239
0'
b00 *
b00 ,
0.
00
b00000000 1
b00000000 2
#240
b01001101 $
b01011100 %
1'
b01001101 (
b01011100 )
b01 +
b10 ,
1-
1/
10
#241
0'
b00000000 (
b00000000 )
b00 +
b00 ,
0-
0/
00
#242
1'
b01 *
b10 ,
1.
10
b01001101 1
b01011100 2
#243
0'
b00 *
b00 ,
0.
00
b00000000 1
b00000000 2
#244
b10011011 %
b00010100 &
1'
b10011011 (
b00010100 )
b10 +
b11 ,
1-
1/
10
#245
0'
b00000000 (
b00000000 )
b00 +
b00 ,
0-
0/
00
#246
1'
b01 *
b10 ,
1.
10
b01001101 1
b10011011 2
#247
0'
b00 *
b00 ,
0.
00
b00000000 1
b00000000 2
#248
b01111100 %
b00001000 &
1'
b01111100 (
b00001000 )
b10 +
b11 ,
1-
1/
10
#249
0'
b00000000 (
b00000000 )
b00 +
b00 ,
0-
0/
00
#250
1'
b01 ,
1.
10
b10010001 1
b01001101 2
#251
0'
b00 ,
0.
00
b00000000 1
b00000000 2
#252
b01001100 #
b01010110 &
1'
b01010110 (
b01001100 )
b11 +
1-
1/
10
#253
0'
b00000000 (
b00000000 )
b00 +
0-
0/
00
#254
1'
b01 ,
1.
10
b01001100 1
b01001101 2
#255
0'
b00 ,
0.
00
b00000000 1
b00000000 2
#256
b10011011 #
b11110001 $
1'
b10011011 (
b11110001 )
b01 ,
1-
1/
10
#257
0'
b00000000 (
b00000000 )
b00 ,
0-
0/
00
#258
1'
b01 *
b10 ,
1.
10
b11110001 1
b01111100 2
#259
0'
b00 *
b00 ,
0.
00
b00000000 1
b00000000 2
#260
b01011101 %
b01111001 &
1'
b01011101 (
b01111001 )
b10 +
b11 ,
1-
1/
10
#261
0'
b00000000 (
b00000000 )
b00 +
b00 ,
0-
0/
00
#262
1'
b01 ,
1.
10
b10011011 1
b11110001 2
#263
0'
b00 ,
0.
00
b00000000 1
b00000000 2
#264
b10111010 $
b11100101 %
1'
b10111010 (
b11100101 )
b01 +
b10 ,
1-
1/
10
#265
0'
b00000000 (
b00000000 )
b00 +
b00 ,
0-
0/
00
#266
1'
b01 ,
1.
10
b10011011 1
b10111010 2
#267
0'
b00 ,
0.
00
b00000000 1
b00000000 2
#268
b11010000 #
b11100011 $
1'
b11010000 (
b11100011 )
b01 ,
1-
1/
10
#269
0'
b00000000 (
b00000000 )
b00 ,
0-
0/
00
#270
1'
b01 ,
1.
10
b11010000 1
b11100011 2
#271
0'
b00 ,
0.
00
b00000000 1
b00000000 2
#272
b11001110 $
b01010011 %
1'
b11001110 (
b01010011 )
b01 +
b10 ,
1-
1/
10
#273
0'
b00000000 (
b00000000 )
b00 +
b00 ,
0-
0/
00
#274
1'
b11 *
1.
10
b01111001 1
b11010000 2
#275
0'
b00 *
0.
00
b00000000 1
b00000000 2
#276
b00010011 #
b11101010 $
1'
b00010011 (
b11101010 )
b01 ,
1-
1/
10
#277
0'
b00000000 (
b00000000 )
b00 ,
0-
0/
00
#278
1'
b01 ,
1.
10
b00010011 1
b11101010 2
#279
0'
b00 ,
0.
00
b00000000 1
b00000000 2
#280
b11101010 #
b11110111 &
1'
b11110111 (
b11101010 )
b11 +
1-
1/
10
#281
0'
b00000000 (
b00000000 )
b00 +
0-
0/
00
#282
1'
b01 *
b10 ,
1.
10
b11101010 1
b01010011 2
#283
0'
b00 *
b00 ,
0.
00
b00000000 1
b00000000 2
#284
b00011001 $
b11101111 %
1'
b00011001 (
b11101111 )
b01 +
b10 ,
1-
1/
10
#285
0'
b00000000 (
b00000000 )
b00 +
b00 ,
0-
0/
00
#286
1'
b01 *
b10 ,
1.
10
b00011001 1
b11101111 2
#287
0'
b00 *
b00 ,
0.
00
b00000000 1
b00000000 2
#288
b00100101 %
b11001111 &
1'
b00100101 (
b11001111 )
b10 +
b11 ,
1-
1/
10
#289
0'
b00000000 (
b00000000 )
b00 +
b00 ,
0-
0/
00
#290
1'
b10 *
b11 ,
1.
10
b00100101 1
b11001111 2
#291
0'
b00 *
b00 ,
0.
00
b00000000 1
b00000000 2
#292
b10101011 $
b00111100 %
1'
b10101011 (
b00111100 )
b01 +
b10 ,
1-
1/
10
#293
0'
b00000000 (
b00000000 )
b00 +
b00 ,
0-
0/
00
#294
1'
b01 *
b10 ,
1.
10
b10101011 1
b00111100 2
#295
0'
b00 *
b00 ,
0.
00
b00000000 1
b00000000 2
#296
b11001011 #
b11101111 &
1'
b11101111 (
b11001011 )
b11 +
1-
1/
10
#297
0'
b00000000 (
b00000000 )
b00 +
0-
0/
00
#298
1'
b01 *
b10 ,
1.
10
b10101011 1
b00111100 2
#299
0'
b00 *
b00 ,
0.
00
b00000000 1
b00000000 2
#300
b00110000 #
b00001101 $
1'
b00110000 (
b00001101 )
b01 ,
1-
1/
10
#301
0'
b00000000 (
b00000000 )
b00 ,
0-
0/
00
#302
1'
b01 *
b10 ,
1.
10
b00001101 1
b00111100 2
#303
0'
b00 *
b00 ,
0.
00
b00000000 1
b00000000 2
#304
b11010010 %
b10110001 &
1'
b11010010 (
b10110001 )
b10 +
b11 ,
1-
1/
10
#305
0'
b00000000 (
b00000000 )
b00 +
b00 ,
0-
0/
00
#306
1'
b01 ,
1.
10
b00110000 1
b00001101 2
#307
0'
b00 ,
0.
00
b00000000 1
b00000000 2
#308
b10111000 %
b11110100 &
1'
b10111000 (
b11110100 )
b10 +
b11 ,
1-
1/
10
#309
0'
b00000000 (
b00000000 )
b00 +
b00 ,
0-
0/
00
#310
1'
b01 ,
1.
10
b00110000 1
b00001101 2
#311
0'
b00 ,
0.
00
b00000000 1
b00000000 2
#312
b00010001 #
b10001001 &
1'
b10001001 (
b00010001 )
b11 +
1-
1/
10
#313
0'
b00000000 (
b00000000 )
b00 +
0-
0/
00
#314
1'
b11 *
1.
10
b10001001 1
b00010001 2
#315
0'
b00 *
0.
00
b00000000 1
b00000000 2
#316
b10110000 #
b00001110 $
1'
b10110000 (
b00001110 )
b01 ,
1-
1/
10
#317
0'
b00000000 (
b00000000 )
b00 ,
0-
0/
00
#318
1'
b10 *
b11 ,
1.
10
b10111000 1
b10001001 2
#319
0'
b00 *
b00 ,
0.
00
b00000000 1
b00000000 2
#320
b01101011 #
b11101111 $
1'
b01101011 (
b11101111 )
b01 ,
1-
1/
10
#321
0'
b00000000 (
b00000000 )
b00 ,
0-
0/
00
#322
1'
b01 ,
1.
10
b01101011 1
b11101111 2
#323
0'
b00 ,
0.
00
b00000000 1
b00000000 2
#324
b11110000 %
b11111101 &
1'
b11110000 (
b11111101 )
b10 +
b11 ,
1-
1/
10
#325
0'
b00000000 (
b00000000 )
b00 +
b00 ,
0-
0/
00
#326
1'
b01 ,
1.
10
b01101011 1
b11101111 2
#327
0'
b00 ,
0.
00
b00000000 1
b00000000 2
#328
b10001001 %
b10001000 &
1'
b10001001 (
b10001000 )
b10 +
b11 ,
1-
1/
10
#329
0'
b00000000 (
b00000000 )
b00 +
b00 ,
0-
0/
00
#330
1'
b01 *
b10 ,
1.
10
b11101111 1
b10001001 2
#331
0'
b00 *
b00 ,
0.
00
b00000000 1
b00000000 2
#332
b10001011 $
b10110001 %
1'
b10001011 (
b10110001 )
b01 +
b10 ,
1-
1/
10
#333
0'
b00000000 (
b00000000 )
b00 +
b00 ,
0-
0/
00
#334
1'
b10 *
b11 ,
1.
10
b10110001 1
b10001000 2
#335
0'
b00 *
b00 ,
0.
00
b00000000 1
b00000000 2
#336
b00010010 %
b01111110 &
1'
b00010010 (
b01111110 )
b10 +
b11 ,
1-
1/
10
#337
0'
b00000000 (
b00000000 )
b00 +
b00 ,
0-
0/
00
#338
1'
b11 *
1.
10
b01111110 1
b01101011 2
#339
0'
b00 *
0.
00
b00000000 1
b00000000 2
#340
b11001100 $
b00110011 %
1'
b11001100 (
b00110011 )
b01 +
b10 ,
1-
1/
10
#341
0'
b00000000 (
b00000000 )
b00 +
b00 ,
0-
0/
00
#342
1'
b01 ,
1.
10
b01101011 1
b11001100 2
#343
0'
b00 ,
0.
00
b00000000 1
b00000000 2
#344
b00000001 #
b01100000 $
1'
b00000001 (
b01100000 )
b01 ,
1-
1/
10
#345
0'
b00000000 (
b00000000 )
b00 ,
0-
0/
00
#346
1'
b01 ,
1.
10
b00000001 1
b01100000 2
#347
0'
b00 ,
0.
00
b00000000 1
b00000000 2
#348
b10000010 #
b01001011 &
1'
b01001011 (
b10000010 )
b11 +
1-
1/
10
#349
0'
b00000000 (
b00000000 )
b00 +
0-
0/
00
#350
1'
b01 *
b10 ,
1.
10
b01100000 1
b00110011 2
#351
0'
b00 *
b00 ,
0.
00
b00000000 1
b00000000 2
#352
b10001100 %
b10110000 &
1'
b10001100 (
b10110000 )
b10 +
b11 ,
1-
1/
10
#353
0'
b00000000 (
b00000000 )
b00 +
b00 ,
0-
0/
00
#354
1'
b01 ,
1.
10
b10000010 1
b01100000 2
#355
0'
b00 ,
0.
00
b00000000 1
b00000000 2
#356
b10010100 #
b10111011 $
1'
b10010100 (
b10111011 )
b01 ,
1-
1/
10
#357
0'
b00000000 (
b00000000 )
b00 ,
0-
0/
00
#358
1'
b01 ,
1.
10
b10010100 1
b10111011 2
#359
0'
b00 ,
0.
00
b00000000 1
b00000000 2
#360
b00110010 #
b00010010 $
1'
b00110010 (
b00010010 )
b01 ,
1-
1/
10
#361
0'
b00000000 (
b00000000 )
b00 ,
0-
0/
00
#362
1'
b01 ,
1.
10
b00110010 1
b00010010 2
#363
0'
b00 ,
0.
00
b00000000 1
b00000000 2
