src/tests/resources/operation/seq/firmem_rwl/test.vcd
$version Generated by KCIRCT $end
$timescale 1s $end
 $scope module Foo $end
  $var wire 1 . clk $end
  $var wire 8 / data_in_w [7:0] $end
  $var wire 8 : data_in_rw [7:0] $end
  $var wire 2 ; addr_r [1:0] $end
  $var wire 2 < addr_w [1:0] $end
  $var wire 2 = addr_rw [1:0] $end
  $var wire 1 > mode $end
  $var wire 1 ? enable_r $end
  $var wire 1 @ enable_w $end
  $var wire 1 A enable_rw $end
  $var wire 8 M read_out [7:0] $end
  $var wire 8 N rw_out [7:0] $end
  $scope module Foo $end
   $var wire 1 . clk $end
   $var wire 8 / data_in_w [7:0] $end
   $var wire 8 : data_in_rw [7:0] $end
   $var wire 2 ; addr_r [1:0] $end
   $var wire 2 < addr_w [1:0] $end
   $var wire 2 = addr_rw [1:0] $end
   $var wire 1 > mode $end
   $var wire 1 ? enable_r $end
   $var wire 1 @ enable_w $end
   $var wire 1 A enable_rw $end
   $var wire 8 M read_out [7:0] $end
   $var wire 8 N rw_out [7:0] $end
   $scope module memory_ext $end
    $var wire 2 B R0_addr [1:0] $end
    $var wire 1 C R0_en $end
    $var wire 8 D R0_data [7:0] $end
    $var wire 2 E RW0_addr [1:0] $end
    $var wire 1 F RW0_en $end
    $var wire 1 G RW0_wmode $end
    $var wire 8 H RW0_wdata [7:0] $end
    $var wire 8 I RW0_rdata [7:0] $end
    $var wire 2 J W0_addr [1:0] $end
    $var wire 1 K W0_en $end
    $var wire 8 L W0_data [7:0] $end
   $upscope $end
  $upscope $end
 $upscope $end
$enddefinitions $end

#0
1.
b00101101 /
b01000010 :
b00 ;
b00 <
b10 =
1>
0?
1@
1A
b00000000 M
b00000000 N

#1
0.
b00000000 /
b00000000 :
b00 ;
b00 <
b00 =
0>
0?
0@
0A
b00000000 M
b00000000 N

#2
1.
b00000000 /
b00000000 :
b10 ;
b00 <
b11 =
0>
1?
0@
1A
b00000000 M
b00000000 N

#3
0.
b00000000 /
b00000000 :
b00 ;
b00 <
b00 =
0>
0?
0@
0A
b01000010 M
b00000000 N

#4
1.
b01010100 /
b11111001 :
b00 ;
b01 <
b10 =
1>
0?
1@
1A
b01000010 M
b00000000 N

#5
0.
b00000000 /
b00000000 :
b00 ;
b00 <
b00 =
0>
0?
0@
0A
b00000000 M
b00000000 N

#6
1.
b00000000 /
b00000000 :
b00 ;
b00 <
b01 =
0>
1?
0@
1A
b00000000 M
b00000000 N

#7
0.
b00000000 /
b00000000 :
b00 ;
b00 <
b00 =
0>
0?
0@
0A
b00101101 M
b01010100 N

#8
1.
b01001010 /
b10010011 :
b00 ;
b01 <
b10 =
1>
0?
1@
1A
b00101101 M
b01010100 N

#9
0.
b00000000 /
b00000000 :
b00 ;
b00 <
b00 =
0>
0?
0@
0A
b00000000 M
b00000000 N

#10
1.
b00000000 /
b00000000 :
b01 ;
b00 <
b10 =
0>
1?
0@
1A
b00000000 M
b00000000 N

#11
0.
b00000000 /
b00000000 :
b00 ;
b00 <
b00 =
0>
0?
0@
0A
b01001010 M
b10010011 N

#12
1.
b11110010 /
b00110011 :
b00 ;
b00 <
b01 =
1>
0?
1@
1A
b01001010 M
b10010011 N

#13
0.
b00000000 /
b00000000 :
b00 ;
b00 <
b00 =
0>
0?
0@
0A
b00000000 M
b00000000 N

#14
1.
b00000000 /
b00000000 :
b11 ;
b00 <
b00 =
0>
1?
0@
1A
b00000000 M
b00000000 N

#15
0.
b00000000 /
b00000000 :
b00 ;
b00 <
b00 =
0>
0?
0@
0A
b00000000 M
b11110010 N

#16
1.
b01010111 /
b11001110 :
b00 ;
b11 <
b00 =
1>
0?
1@
1A
b00000000 M
b11110010 N

#17
0.
b00000000 /
b00000000 :
b00 ;
b00 <
b00 =
0>
0?
0@
0A
b00000000 M
b00000000 N

#18
1.
b00000000 /
b00000000 :
b11 ;
b00 <
b00 =
0>
1?
0@
1A
b00000000 M
b00000000 N

#19
0.
b00000000 /
b00000000 :
b00 ;
b00 <
b00 =
0>
0?
0@
0A
b01010111 M
b11001110 N

#20
1.
b11011000 /
b11111110 :
b00 ;
b01 <
b10 =
1>
0?
1@
1A
b01010111 M
b11001110 N

#21
0.
b00000000 /
b00000000 :
b00 ;
b00 <
b00 =
0>
0?
0@
0A
b00000000 M
b00000000 N

#22
1.
b00000000 /
b00000000 :
b01 ;
b00 <
b10 =
0>
1?
0@
1A
b00000000 M
b00000000 N

#23
0.
b00000000 /
b00000000 :
b00 ;
b00 <
b00 =
0>
0?
0@
0A
b11011000 M
b11111110 N

#24
1.
b11111101 /
b10011100 :
b00 ;
b01 <
b10 =
1>
0?
1@
1A
b11011000 M
b11111110 N

#25
0.
b00000000 /
b00000000 :
b00 ;
b00 <
b00 =
0>
0?
0@
0A
b00000000 M
b00000000 N

#26
1.
b00000000 /
b00000000 :
b10 ;
b00 <
b11 =
0>
1?
0@
1A
b00000000 M
b00000000 N

#27
0.
b00000000 /
b00000000 :
b00 ;
b00 <
b00 =
0>
0?
0@
0A
b10011100 M
b01010111 N

#28
1.
b10110101 /
b10010001 :
b00 ;
b11 <
b00 =
1>
0?
1@
1A
b10011100 M
b01010111 N

#29
0.
b00000000 /
b00000000 :
b00 ;
b00 <
b00 =
0>
0?
0@
0A
b00000000 M
b00000000 N

#30
1.
b00000000 /
b00000000 :
b00 ;
b00 <
b01 =
0>
1?
0@
1A
b00000000 M
b00000000 N

#31
0.
b00000000 /
b00000000 :
b00 ;
b00 <
b00 =
0>
0?
0@
0A
b10010001 M
b11111101 N

#32
1.
b00001101 /
b01000101 :
b00 ;
b01 <
b10 =
1>
0?
1@
1A
b10010001 M
b11111101 N

#33
0.
b00000000 /
b00000000 :
b00 ;
b00 <
b00 =
0>
0?
0@
0A
b00000000 M
b00000000 N

#34
1.
b00000000 /
b00000000 :
b01 ;
b00 <
b10 =
0>
1?
0@
1A
b00000000 M
b00000000 N

#35
0.
b00000000 /
b00000000 :
b00 ;
b00 <
b00 =
0>
0?
0@
0A
b00001101 M
b01000101 N

#36
1.
b00000100 /
b01101011 :
b00 ;
b10 <
b11 =
1>
0?
1@
1A
b00001101 M
b01000101 N

#37
0.
b00000000 /
b00000000 :
b00 ;
b00 <
b00 =
0>
0?
0@
0A
b00000000 M
b00000000 N

#38
1.
b00000000 /
b00000000 :
b10 ;
b00 <
b11 =
0>
1?
0@
1A
b00000000 M
b00000000 N

#39
0.
b00000000 /
b00000000 :
b00 ;
b00 <
b00 =
0>
0?
0@
0A
b00000100 M
b01101011 N

#40
1.
b00001011 /
b00010111 :
b00 ;
b00 <
b01 =
1>
0?
1@
1A
b00000100 M
b01101011 N

#41
0.
b00000000 /
b00000000 :
b00 ;
b00 <
b00 =
0>
0?
0@
0A
b00000000 M
b00000000 N

#42
1.
b00000000 /
b00000000 :
b01 ;
b00 <
b10 =
0>
1?
0@
1A
b00000000 M
b00000000 N

#43
0.
b00000000 /
b00000000 :
b00 ;
b00 <
b00 =
0>
0?
0@
0A
b00010111 M
b00000100 N

#44
1.
b11010001 /
b11001101 :
b00 ;
b01 <
b10 =
1>
0?
1@
1A
b00010111 M
b00000100 N

#45
0.
b00000000 /
b00000000 :
b00 ;
b00 <
b00 =
0>
0?
0@
0A
b00000000 M
b00000000 N

#46
1.
b00000000 /
b00000000 :
b11 ;
b00 <
b00 =
0>
1?
0@
1A
b00000000 M
b00000000 N

#47
0.
b00000000 /
b00000000 :
b00 ;
b00 <
b00 =
0>
0?
0@
0A
b01101011 M
b00001011 N

#48
1.
b00100111 /
b01111101 :
b00 ;
b00 <
b01 =
1>
0?
1@
1A
b01101011 M
b00001011 N

#49
0.
b00000000 /
b00000000 :
b00 ;
b00 <
b00 =
0>
0?
0@
0A
b00000000 M
b00000000 N

#50
1.
b00000000 /
b00000000 :
b10 ;
b00 <
b11 =
0>
1?
0@
1A
b00000000 M
b00000000 N

#51
0.
b00000000 /
b00000000 :
b00 ;
b00 <
b00 =
0>
0?
0@
0A
b11001101 M
b01101011 N

#52
1.
b10100110 /
b11101111 :
b00 ;
b10 <
b11 =
1>
0?
1@
1A
b11001101 M
b01101011 N

#53
0.
b00000000 /
b00000000 :
b00 ;
b00 <
b00 =
0>
0?
0@
0A
b00000000 M
b00000000 N

#54
1.
b00000000 /
b00000000 :
b00 ;
b00 <
b01 =
0>
1?
0@
1A
b00000000 M
b00000000 N

#55
0.
b00000000 /
b00000000 :
b00 ;
b00 <
b00 =
0>
0?
0@
0A
b00100111 M
b01111101 N

#56
1.
b11011110 /
b10100011 :
b00 ;
b10 <
b11 =
1>
0?
1@
1A
b00100111 M
b01111101 N

#57
0.
b00000000 /
b00000000 :
b00 ;
b00 <
b00 =
0>
0?
0@
0A
b00000000 M
b00000000 N

#58
1.
b00000000 /
b00000000 :
b11 ;
b00 <
b00 =
0>
1?
0@
1A
b00000000 M
b00000000 N

#59
0.
b00000000 /
b00000000 :
b00 ;
b00 <
b00 =
0>
0?
0@
0A
b10100011 M
b00100111 N

#60
1.
b01111110 /
b10110000 :
b00 ;
b01 <
b10 =
1>
0?
1@
1A
b10100011 M
b00100111 N

#61
0.
b00000000 /
b00000000 :
b00 ;
b00 <
b00 =
0>
0?
0@
0A
b00000000 M
b00000000 N

#62
1.
b00000000 /
b00000000 :
b10 ;
b00 <
b11 =
0>
1?
0@
1A
b00000000 M
b00000000 N

#63
0.
b00000000 /
b00000000 :
b00 ;
b00 <
b00 =
0>
0?
0@
0A
b10110000 M
b10100011 N

#64
1.
b11100111 /
b11000000 :
b00 ;
b00 <
b01 =
1>
0?
1@
1A
b10110000 M
b10100011 N

#65
0.
b00000000 /
b00000000 :
b00 ;
b00 <
b00 =
0>
0?
0@
0A
b00000000 M
b00000000 N

#66
1.
b00000000 /
b00000000 :
b11 ;
b00 <
b00 =
0>
1?
0@
1A
b00000000 M
b00000000 N

#67
0.
b00000000 /
b00000000 :
b00 ;
b00 <
b00 =
0>
0?
0@
0A
b10100011 M
b11100111 N

#68
1.
b10101110 /
b01100011 :
b00 ;
b01 <
b10 =
1>
0?
1@
1A
b10100011 M
b11100111 N

#69
0.
b00000000 /
b00000000 :
b00 ;
b00 <
b00 =
0>
0?
0@
0A
b00000000 M
b00000000 N

#70
1.
b00000000 /
b00000000 :
b10 ;
b00 <
b11 =
0>
1?
0@
1A
b00000000 M
b00000000 N

#71
0.
b00000000 /
b00000000 :
b00 ;
b00 <
b00 =
0>
0?
0@
0A
b01100011 M
b10100011 N

#72
1.
b01000011 /
b01000110 :
b00 ;
b01 <
b10 =
1>
0?
1@
1A
b01100011 M
b10100011 N

#73
0.
b00000000 /
b00000000 :
b00 ;
b00 <
b00 =
0>
0?
0@
0A
b00000000 M
b00000000 N

#74
1.
b00000000 /
b00000000 :
b00 ;
b00 <
b01 =
0>
1?
0@
1A
b00000000 M
b00000000 N

#75
0.
b00000000 /
b00000000 :
b00 ;
b00 <
b00 =
0>
0?
0@
0A
b11100111 M
b01000011 N

#76
1.
b00010000 /
b00011011 :
b00 ;
b10 <
b11 =
1>
0?
1@
1A
b11100111 M
b01000011 N

#77
0.
b00000000 /
b00000000 :
b00 ;
b00 <
b00 =
0>
0?
0@
0A
b00000000 M
b00000000 N

#78
1.
b00000000 /
b00000000 :
b01 ;
b00 <
b10 =
0>
1?
0@
1A
b00000000 M
b00000000 N

#79
0.
b00000000 /
b00000000 :
b00 ;
b00 <
b00 =
0>
0?
0@
0A
b01000011 M
b00010000 N

#80
1.
b10010101 /
b01010110 :
b00 ;
b10 <
b11 =
1>
0?
1@
1A
b01000011 M
b00010000 N

#81
0.
b00000000 /
b00000000 :
b00 ;
b00 <
b00 =
0>
0?
0@
0A
b00000000 M
b00000000 N

#82
1.
b00000000 /
b00000000 :
b10 ;
b00 <
b11 =
0>
1?
0@
1A
b00000000 M
b00000000 N

#83
0.
b00000000 /
b00000000 :
b00 ;
b00 <
b00 =
0>
0?
0@
0A
b10010101 M
b01010110 N

#84
1.
b11101010 /
b11100010 :
b00 ;
b00 <
b01 =
1>
0?
1@
1A
b10010101 M
b01010110 N

#85
0.
b00000000 /
b00000000 :
b00 ;
b00 <
b00 =
0>
0?
0@
0A
b00000000 M
b00000000 N

#86
1.
b00000000 /
b00000000 :
b01 ;
b00 <
b10 =
0>
1?
0@
1A
b00000000 M
b00000000 N

#87
0.
b00000000 /
b00000000 :
b00 ;
b00 <
b00 =
0>
0?
0@
0A
b11100010 M
b10010101 N

#88
1.
b10111011 /
b00100000 :
b00 ;
b01 <
b10 =
1>
0?
1@
1A
b11100010 M
b10010101 N

#89
0.
b00000000 /
b00000000 :
b00 ;
b00 <
b00 =
0>
0?
0@
0A
b00000000 M
b00000000 N

#90
1.
b00000000 /
b00000000 :
b10 ;
b00 <
b11 =
0>
1?
0@
1A
b00000000 M
b00000000 N

#91
0.
b00000000 /
b00000000 :
b00 ;
b00 <
b00 =
0>
0?
0@
0A
b00100000 M
b01010110 N

#92
1.
b01011011 /
b11001011 :
b00 ;
b10 <
b11 =
1>
0?
1@
1A
b00100000 M
b01010110 N

#93
0.
b00000000 /
b00000000 :
b00 ;
b00 <
b00 =
0>
0?
0@
0A
b00000000 M
b00000000 N

#94
1.
b00000000 /
b00000000 :
b11 ;
b00 <
b00 =
0>
1?
0@
1A
b00000000 M
b00000000 N

#95
0.
b00000000 /
b00000000 :
b00 ;
b00 <
b00 =
0>
0?
0@
0A
b11001011 M
b11101010 N

#96
1.
b11000111 /
b11011010 :
b00 ;
b10 <
b11 =
1>
0?
1@
1A
b11001011 M
b11101010 N

#97
0.
b00000000 /
b00000000 :
b00 ;
b00 <
b00 =
0>
0?
0@
0A
b00000000 M
b00000000 N

#98
1.
b00000000 /
b00000000 :
b10 ;
b00 <
b11 =
0>
1?
0@
1A
b00000000 M
b00000000 N

#99
0.
b00000000 /
b00000000 :
b00 ;
b00 <
b00 =
0>
0?
0@
0A
b11000111 M
b11011010 N

#100
1.
b11000001 /
b11110111 :
b00 ;
b10 <
b11 =
1>
0?
1@
1A
b11000111 M
b11011010 N

#101
0.
b00000000 /
b00000000 :
b00 ;
b00 <
b00 =
0>
0?
0@
0A
b00000000 M
b00000000 N

#102
1.
b00000000 /
b00000000 :
b00 ;
b00 <
b01 =
0>
1?
0@
1A
b00000000 M
b00000000 N

#103
0.
b00000000 /
b00000000 :
b00 ;
b00 <
b00 =
0>
0?
0@
0A
b11101010 M
b10111011 N

#104
1.
b10110100 /
b00001111 :
b00 ;
b10 <
b11 =
1>
0?
1@
1A
b11101010 M
b10111011 N

#105
0.
b00000000 /
b00000000 :
b00 ;
b00 <
b00 =
0>
0?
0@
0A
b00000000 M
b00000000 N

#106
1.
b00000000 /
b00000000 :
b01 ;
b00 <
b10 =
0>
1?
0@
1A
b00000000 M
b00000000 N

#107
0.
b00000000 /
b00000000 :
b00 ;
b00 <
b00 =
0>
0?
0@
0A
b10111011 M
b10110100 N

#108
1.
b10000010 /
b11011100 :
b00 ;
b00 <
b01 =
1>
0?
1@
1A
b10111011 M
b10110100 N

#109
0.
b00000000 /
b00000000 :
b00 ;
b00 <
b00 =
0>
0?
0@
0A
b00000000 M
b00000000 N

#110
1.
b00000000 /
b00000000 :
b01 ;
b00 <
b10 =
0>
1?
0@
1A
b00000000 M
b00000000 N

#111
0.
b00000000 /
b00000000 :
b00 ;
b00 <
b00 =
0>
0?
0@
0A
b11011100 M
b10110100 N

#112
1.
b01011101 /
b01111011 :
b00 ;
b01 <
b10 =
1>
0?
1@
1A
b11011100 M
b10110100 N

#113
0.
b00000000 /
b00000000 :
b00 ;
b00 <
b00 =
0>
0?
0@
0A
b00000000 M
b00000000 N

#114
1.
b00000000 /
b00000000 :
b00 ;
b00 <
b01 =
0>
1?
0@
1A
b00000000 M
b00000000 N

#115
0.
b00000000 /
b00000000 :
b00 ;
b00 <
b00 =
0>
0?
0@
0A
b10000010 M
b01011101 N

#116
1.
b10110111 /
b01111111 :
b00 ;
b11 <
b00 =
1>
0?
1@
1A
b10000010 M
b01011101 N

#117
0.
b00000000 /
b00000000 :
b00 ;
b00 <
b00 =
0>
0?
0@
0A
b00000000 M
b00000000 N

#118
1.
b00000000 /
b00000000 :
b11 ;
b00 <
b00 =
0>
1?
0@
1A
b00000000 M
b00000000 N

#119
0.
b00000000 /
b00000000 :
b00 ;
b00 <
b00 =
0>
0?
0@
0A
b10110111 M
b01111111 N

#120
1.
b10011001 /
b01111100 :
b00 ;
b01 <
b10 =
1>
0?
1@
1A
b10110111 M
b01111111 N

#121
0.
b00000000 /
b00000000 :
b00 ;
b00 <
b00 =
0>
0?
0@
0A
b00000000 M
b00000000 N

#122
1.
b00000000 /
b00000000 :
b11 ;
b00 <
b00 =
0>
1?
0@
1A
b00000000 M
b00000000 N

#123
0.
b00000000 /
b00000000 :
b00 ;
b00 <
b00 =
0>
0?
0@
0A
b10110111 M
b01111111 N

#124
1.
b00101001 /
b00010000 :
b00 ;
b10 <
b11 =
1>
0?
1@
1A
b10110111 M
b01111111 N

#125
0.
b00000000 /
b00000000 :
b00 ;
b00 <
b00 =
0>
0?
0@
0A
b00000000 M
b00000000 N

#126
1.
b00000000 /
b00000000 :
b11 ;
b00 <
b00 =
0>
1?
0@
1A
b00000000 M
b00000000 N

#127
0.
b00000000 /
b00000000 :
b00 ;
b00 <
b00 =
0>
0?
0@
0A
b00010000 M
b01111111 N

#128
1.
b01110110 /
b00111101 :
b00 ;
b00 <
b01 =
1>
0?
1@
1A
b00010000 M
b01111111 N

#129
0.
b00000000 /
b00000000 :
b00 ;
b00 <
b00 =
0>
0?
0@
0A
b00000000 M
b00000000 N

#130
1.
b00000000 /
b00000000 :
b01 ;
b00 <
b10 =
0>
1?
0@
1A
b00000000 M
b00000000 N

#131
0.
b00000000 /
b00000000 :
b00 ;
b00 <
b00 =
0>
0?
0@
0A
b00111101 M
b00101001 N

#132
1.
b01000011 /
b10000010 :
b00 ;
b10 <
b11 =
1>
0?
1@
1A
b00111101 M
b00101001 N

#133
0.
b00000000 /
b00000000 :
b00 ;
b00 <
b00 =
0>
0?
0@
0A
b00000000 M
b00000000 N

#134
1.
b00000000 /
b00000000 :
b11 ;
b00 <
b00 =
0>
1?
0@
1A
b00000000 M
b00000000 N

#135
0.
b00000000 /
b00000000 :
b00 ;
b00 <
b00 =
0>
0?
0@
0A
b10000010 M
b01110110 N

#136
1.
b11001011 /
b10110100 :
b00 ;
b11 <
b00 =
1>
0?
1@
1A
b10000010 M
b01110110 N

#137
0.
b00000000 /
b00000000 :
b00 ;
b00 <
b00 =
0>
0?
0@
0A
b00000000 M
b00000000 N

#138
1.
b00000000 /
b00000000 :
b00 ;
b00 <
b01 =
0>
1?
0@
1A
b00000000 M
b00000000 N

#139
0.
b00000000 /
b00000000 :
b00 ;
b00 <
b00 =
0>
0?
0@
0A
b10110100 M
b00111101 N

#140
1.
b11001010 /
b01110001 :
b00 ;
b10 <
b11 =
1>
0?
1@
1A
b10110100 M
b00111101 N

#141
0.
b00000000 /
b00000000 :
b00 ;
b00 <
b00 =
0>
0?
0@
0A
b00000000 M
b00000000 N

#142
1.
b00000000 /
b00000000 :
b10 ;
b00 <
b11 =
0>
1?
0@
1A
b00000000 M
b00000000 N

#143
0.
b00000000 /
b00000000 :
b00 ;
b00 <
b00 =
0>
0?
0@
0A
b11001010 M
b01110001 N

#144
1.
b00101101 /
b10111100 :
b00 ;
b01 <
b10 =
1>
0?
1@
1A
b11001010 M
b01110001 N

#145
0.
b00000000 /
b00000000 :
b00 ;
b00 <
b00 =
0>
0?
0@
0A
b00000000 M
b00000000 N

#146
1.
b00000000 /
b00000000 :
b10 ;
b00 <
b11 =
0>
1?
0@
1A
b00000000 M
b00000000 N

#147
0.
b00000000 /
b00000000 :
b00 ;
b00 <
b00 =
0>
0?
0@
0A
b10111100 M
b01110001 N

#148
1.
b11111000 /
b01111010 :
b00 ;
b00 <
b01 =
1>
0?
1@
1A
b10111100 M
b01110001 N

#149
0.
b00000000 /
b00000000 :
b00 ;
b00 <
b00 =
0>
0?
0@
0A
b00000000 M
b00000000 N

#150
1.
b00000000 /
b00000000 :
b01 ;
b00 <
b10 =
0>
1?
0@
1A
b00000000 M
b00000000 N

#151
0.
b00000000 /
b00000000 :
b00 ;
b00 <
b00 =
0>
0?
0@
0A
b01111010 M
b10111100 N

#152
1.
b01011110 /
b11011001 :
b00 ;
b00 <
b01 =
1>
0?
1@
1A
b01111010 M
b10111100 N

#153
0.
b00000000 /
b00000000 :
b00 ;
b00 <
b00 =
0>
0?
0@
0A
b00000000 M
b00000000 N

#154
1.
b00000000 /
b00000000 :
b00 ;
b00 <
b01 =
0>
1?
0@
1A
b00000000 M
b00000000 N

#155
0.
b00000000 /
b00000000 :
b00 ;
b00 <
b00 =
0>
0?
0@
0A
b01011110 M
b11011001 N

#156
1.
b11000111 /
b11100010 :
b00 ;
b00 <
b01 =
1>
0?
1@
1A
b01011110 M
b11011001 N

#157
0.
b00000000 /
b00000000 :
b00 ;
b00 <
b00 =
0>
0?
0@
0A
b00000000 M
b00000000 N

#158
1.
b00000000 /
b00000000 :
b10 ;
b00 <
b11 =
0>
1?
0@
1A
b00000000 M
b00000000 N

#159
0.
b00000000 /
b00000000 :
b00 ;
b00 <
b00 =
0>
0?
0@
0A
b10111100 M
b01110001 N

#160
1.
b10011000 /
b01010000 :
b00 ;
b10 <
b11 =
1>
0?
1@
1A
b10111100 M
b01110001 N

#161
0.
b00000000 /
b00000000 :
b00 ;
b00 <
b00 =
0>
0?
0@
0A
b00000000 M
b00000000 N

#162
1.
b00000000 /
b00000000 :
b11 ;
b00 <
b00 =
0>
1?
0@
1A
b00000000 M
b00000000 N

#163
0.
b00000000 /
b00000000 :
b00 ;
b00 <
b00 =
0>
0?
0@
0A
b01010000 M
b11000111 N

#164
1.
b10111100 /
b01111100 :
b00 ;
b11 <
b00 =
1>
0?
1@
1A
b01010000 M
b11000111 N

#165
0.
b00000000 /
b00000000 :
b00 ;
b00 <
b00 =
0>
0?
0@
0A
b00000000 M
b00000000 N

#166
1.
b00000000 /
b00000000 :
b00 ;
b00 <
b01 =
0>
1?
0@
1A
b00000000 M
b00000000 N

#167
0.
b00000000 /
b00000000 :
b00 ;
b00 <
b00 =
0>
0?
0@
0A
b01111100 M
b11100010 N

#168
1.
b11111010 /
b00111111 :
b00 ;
b10 <
b11 =
1>
0?
1@
1A
b01111100 M
b11100010 N

#169
0.
b00000000 /
b00000000 :
b00 ;
b00 <
b00 =
0>
0?
0@
0A
b00000000 M
b00000000 N

#170
1.
b00000000 /
b00000000 :
b11 ;
b00 <
b00 =
0>
1?
0@
1A
b00000000 M
b00000000 N

#171
0.
b00000000 /
b00000000 :
b00 ;
b00 <
b00 =
0>
0?
0@
0A
b00111111 M
b01111100 N

#172
1.
b01110100 /
b10111100 :
b00 ;
b11 <
b00 =
1>
0?
1@
1A
b00111111 M
b01111100 N

#173
0.
b00000000 /
b00000000 :
b00 ;
b00 <
b00 =
0>
0?
0@
0A
b00000000 M
b00000000 N

#174
1.
b00000000 /
b00000000 :
b00 ;
b00 <
b01 =
0>
1?
0@
1A
b00000000 M
b00000000 N

#175
0.
b00000000 /
b00000000 :
b00 ;
b00 <
b00 =
0>
0?
0@
0A
b10111100 M
b11100010 N

#176
1.
b00100111 /
b10011111 :
b00 ;
b11 <
b00 =
1>
0?
1@
1A
b10111100 M
b11100010 N

#177
0.
b00000000 /
b00000000 :
b00 ;
b00 <
b00 =
0>
0?
0@
0A
b00000000 M
b00000000 N

#178
1.
b00000000 /
b00000000 :
b11 ;
b00 <
b00 =
0>
1?
0@
1A
b00000000 M
b00000000 N

#179
0.
b00000000 /
b00000000 :
b00 ;
b00 <
b00 =
0>
0?
0@
0A
b00100111 M
b10011111 N

#180
1.
b11101101 /
b01010010 :
b00 ;
b11 <
b00 =
1>
0?
1@
1A
b00100111 M
b10011111 N

#181
0.
b00000000 /
b00000000 :
b00 ;
b00 <
b00 =
0>
0?
0@
0A
b00000000 M
b00000000 N

#182
1.
b00000000 /
b00000000 :
b10 ;
b00 <
b11 =
0>
1?
0@
1A
b00000000 M
b00000000 N

#183
0.
b00000000 /
b00000000 :
b00 ;
b00 <
b00 =
0>
0?
0@
0A
b11111010 M
b11101101 N

#184
1.
b00011100 /
b10011001 :
b00 ;
b00 <
b01 =
1>
0?
1@
1A
b11111010 M
b11101101 N

#185
0.
b00000000 /
b00000000 :
b00 ;
b00 <
b00 =
0>
0?
0@
0A
b00000000 M
b00000000 N

#186
1.
b00000000 /
b00000000 :
b01 ;
b00 <
b10 =
0>
1?
0@
1A
b00000000 M
b00000000 N

#187
0.
b00000000 /
b00000000 :
b00 ;
b00 <
b00 =
0>
0?
0@
0A
b10011001 M
b11111010 N

#188
1.
b11011110 /
b01000101 :
b00 ;
b10 <
b11 =
1>
0?
1@
1A
b10011001 M
b11111010 N

#189
0.
b00000000 /
b00000000 :
b00 ;
b00 <
b00 =
0>
0?
0@
0A
b00000000 M
b00000000 N

#190
1.
b00000000 /
b00000000 :
b10 ;
b00 <
b11 =
0>
1?
0@
1A
b00000000 M
b00000000 N

#191
0.
b00000000 /
b00000000 :
b00 ;
b00 <
b00 =
0>
0?
0@
0A
b11011110 M
b01000101 N

#192
1.
b01100001 /
b11001001 :
b00 ;
b01 <
b10 =
1>
0?
1@
1A
b11011110 M
b01000101 N

#193
0.
b00000000 /
b00000000 :
b00 ;
b00 <
b00 =
0>
0?
0@
0A
b00000000 M
b00000000 N

#194
1.
b00000000 /
b00000000 :
b11 ;
b00 <
b00 =
0>
1?
0@
1A
b00000000 M
b00000000 N

#195
0.
b00000000 /
b00000000 :
b00 ;
b00 <
b00 =
0>
0?
0@
0A
b01000101 M
b00011100 N

#196
1.
b00100111 /
b01101111 :
b00 ;
b10 <
b11 =
1>
0?
1@
1A
b01000101 M
b00011100 N

#197
0.
b00000000 /
b00000000 :
b00 ;
b00 <
b00 =
0>
0?
0@
0A
b00000000 M
b00000000 N

#198
1.
b00000000 /
b00000000 :
b11 ;
b00 <
b00 =
0>
1?
0@
1A
b00000000 M
b00000000 N

#199
0.
b00000000 /
b00000000 :
b00 ;
b00 <
b00 =
0>
0?
0@
0A
b01101111 M
b00011100 N

#200
1.
b00100111 /
b01001010 :
b00 ;
b00 <
b01 =
1>
0?
1@
1A
b01101111 M
b00011100 N

#201
0.
b00000000 /
b00000000 :
b00 ;
b00 <
b00 =
0>
0?
0@
0A
b00000000 M
b00000000 N

#202
1.
b00000000 /
b00000000 :
b00 ;
b00 <
b01 =
0>
1?
0@
1A
b00000000 M
b00000000 N

#203
0.
b00000000 /
b00000000 :
b00 ;
b00 <
b00 =
0>
0?
0@
0A
b00100111 M
b01001010 N

#204
1.
b00101111 /
b01110011 :
b00 ;
b00 <
b01 =
1>
0?
1@
1A
b00100111 M
b01001010 N

#205
0.
b00000000 /
b00000000 :
b00 ;
b00 <
b00 =
0>
0?
0@
0A
b00000000 M
b00000000 N

#206
1.
b00000000 /
b00000000 :
b10 ;
b00 <
b11 =
0>
1?
0@
1A
b00000000 M
b00000000 N

#207
0.
b00000000 /
b00000000 :
b00 ;
b00 <
b00 =
0>
0?
0@
0A
b00100111 M
b01101111 N

#208
1.
b11000010 /
b10010100 :
b00 ;
b00 <
b01 =
1>
0?
1@
1A
b00100111 M
b01101111 N

#209
0.
b00000000 /
b00000000 :
b00 ;
b00 <
b00 =
0>
0?
0@
0A
b00000000 M
b00000000 N

#210
1.
b00000000 /
b00000000 :
b01 ;
b00 <
b10 =
0>
1?
0@
1A
b00000000 M
b00000000 N

#211
0.
b00000000 /
b00000000 :
b00 ;
b00 <
b00 =
0>
0?
0@
0A
b10010100 M
b00100111 N

#212
1.
b00100111 /
b00110011 :
b00 ;
b00 <
b01 =
1>
0?
1@
1A
b10010100 M
b00100111 N

#213
0.
b00000000 /
b00000000 :
b00 ;
b00 <
b00 =
0>
0?
0@
0A
b00000000 M
b00000000 N

#214
1.
b00000000 /
b00000000 :
b00 ;
b00 <
b01 =
0>
1?
0@
1A
b00000000 M
b00000000 N

#215
0.
b00000000 /
b00000000 :
b00 ;
b00 <
b00 =
0>
0?
0@
0A
b00100111 M
b00110011 N

#216
1.
b01000011 /
b01010000 :
b00 ;
b01 <
b10 =
1>
0?
1@
1A
b00100111 M
b00110011 N

#217
0.
b00000000 /
b00000000 :
b00 ;
b00 <
b00 =
0>
0?
0@
0A
b00000000 M
b00000000 N

#218
1.
b00000000 /
b00000000 :
b11 ;
b00 <
b00 =
0>
1?
0@
1A
b00000000 M
b00000000 N

#219
0.
b00000000 /
b00000000 :
b00 ;
b00 <
b00 =
0>
0?
0@
0A
b01101111 M
b00100111 N

#220
1.
b01110110 /
b11110110 :
b00 ;
b01 <
b10 =
1>
0?
1@
1A
b01101111 M
b00100111 N

#221
0.
b00000000 /
b00000000 :
b00 ;
b00 <
b00 =
0>
0?
0@
0A
b00000000 M
b00000000 N

#222
1.
b00000000 /
b00000000 :
b10 ;
b00 <
b11 =
0>
1?
0@
1A
b00000000 M
b00000000 N

#223
0.
b00000000 /
b00000000 :
b00 ;
b00 <
b00 =
0>
0?
0@
0A
b11110110 M
b01101111 N

#224
1.
b11101100 /
b01110100 :
b00 ;
b11 <
b00 =
1>
0?
1@
1A
b11110110 M
b01101111 N

#225
0.
b00000000 /
b00000000 :
b00 ;
b00 <
b00 =
0>
0?
0@
0A
b00000000 M
b00000000 N

#226
1.
b00000000 /
b00000000 :
b01 ;
b00 <
b10 =
0>
1?
0@
1A
b00000000 M
b00000000 N

#227
0.
b00000000 /
b00000000 :
b00 ;
b00 <
b00 =
0>
0?
0@
0A
b01110110 M
b11110110 N

