src/tests/resources/operation/seq/firreg2/trace_vtor.vcd
$version Generated by VerilatedVcd $end
$date Wed May  7 15:55:30 2025
 $end
$timescale   1ps $end

 $scope module Foo $end
  $var wire  1 # clk $end
  $var wire  8 % res [7:0] $end
  $var wire  8 & res2 [7:0] $end
  $var wire  8 ' res3 [7:0] $end
  $var wire  1 $ reset $end
  $scope module Foo $end
   $var wire  1 # clk $end
   $var wire  8 ( reg_port [7:0] $end
   $var wire  8 ) reg_port2 [7:0] $end
   $var wire  8 % res [7:0] $end
   $var wire  8 & res2 [7:0] $end
   $var wire  8 ' res3 [7:0] $end
   $var wire  1 $ reset $end
  $upscope $end
 $upscope $end
$enddefinitions $end


#1
0#
1$
b00000010 %
b00000001 &
b00000001 '
b00000001 (
b00000001 )
#3
b00000001 %
b00000000 &
b00000000 '
b00000000 (
b00000000 )
#5
0$
#7
#9
1$
#11
0$
b00000010 %
b00000001 &
b00000001 '
b00000001 (
b00000001 )
#13
1$
b00000011 %
b00000010 &
b00000010 '
b00000010 (
b00000010 )
#15
0$
b00000100 %
b00000011 &
b00000011 '
b00000011 (
b00000011 )
#17
b00000001 %
b00000000 &
b00000000 '
b00000000 (
b00000000 )
#19
1$
#21
b00000010 %
b00000001 &
b00000001 '
b00000001 (
b00000001 )
#23
b00000011 %
b00000010 &
b00000010 '
b00000010 (
b00000010 )
#25
0$
b00000001 %
b00000000 &
b00000000 '
b00000000 (
b00000000 )
#27
b00000010 %
b00000001 &
b00000001 '
b00000001 (
b00000001 )
#29
1$
b00000011 %
b00000010 &
b00000010 '
b00000010 (
b00000010 )
#31
b00000001 %
b00000000 &
b00000000 '
b00000000 (
b00000000 )
#33
0$
#35
#37
b00000010 %
b00000001 &
b00000001 '
b00000001 (
b00000001 )
#39
b00000011 %
b00000010 &
b00000010 '
b00000010 (
b00000010 )
#41
b00000001 %
b00000000 &
b00000000 '
b00000000 (
b00000000 )
#43
#45
1$
b00000010 %
b00000001 &
b00000001 '
b00000001 (
b00000001 )
#47
b00000011 %
b00000010 &
b00000010 '
b00000010 (
b00000010 )
#49
0$
b00000001 %
b00000000 &
b00000000 '
b00000000 (
b00000000 )
#51
1$
#53
0$
#55
#57
#59
#61
1$
#63
0$
b00000010 %
b00000001 &
b00000001 '
b00000001 (
b00000001 )
#65
b00000011 %
b00000010 &
b00000010 '
b00000010 (
b00000010 )
#67
1$
b00000001 %
b00000000 &
b00000000 '
b00000000 (
b00000000 )
#69
#71
b00000010 %
b00000001 &
b00000001 '
b00000001 (
b00000001 )
#73
0$
b00000011 %
b00000010 &
b00000010 '
b00000010 (
b00000010 )
#75
1$
b00000100 %
b00000011 &
b00000011 '
b00000011 (
b00000011 )
#77
b00000001 %
b00000000 &
b00000000 '
b00000000 (
b00000000 )
#79
#81
0$
b00000010 %
b00000001 &
b00000001 '
b00000001 (
b00000001 )
#83
b00000001 %
b00000000 &
b00000000 '
b00000000 (
b00000000 )
#85
b00000010 %
b00000001 &
b00000001 '
b00000001 (
b00000001 )
#87
1$
b00000011 %
b00000010 &
b00000010 '
b00000010 (
b00000010 )
#89
0$
b00000001 %
b00000000 &
b00000000 '
b00000000 (
b00000000 )
#91
1$
b00000010 %
b00000001 &
b00000001 '
b00000001 (
b00000001 )
#93
b00000001 %
b00000000 &
b00000000 '
b00000000 (
b00000000 )
#95
#97
b00000010 %
b00000001 &
b00000001 '
b00000001 (
b00000001 )
#99
0$
b00000011 %
b00000010 &
b00000010 '
b00000010 (
b00000010 )
#101
1$
b00000100 %
b00000011 &
b00000011 '
b00000011 (
b00000011 )
#103
0$
b00000101 %
b00000100 &
b00000100 '
b00000100 (
b00000100 )
#105
1$
b00000001 %
b00000000 &
b00000000 '
b00000000 (
b00000000 )
#107
#109
0$
b00000010 %
b00000001 &
b00000001 '
b00000001 (
b00000001 )
#111
b00000001 %
b00000000 &
b00000000 '
b00000000 (
b00000000 )
#113
1$
#115
b00000010 %
b00000001 &
b00000001 '
b00000001 (
b00000001 )
#117
0$
b00000001 %
b00000000 &
b00000000 '
b00000000 (
b00000000 )
#119
b00000010 %
b00000001 &
b00000001 '
b00000001 (
b00000001 )
#121
b00000011 %
b00000010 &
b00000010 '
b00000010 (
b00000010 )
#123
1$
b00000100 %
b00000011 &
b00000011 '
b00000011 (
b00000011 )
#125
0$
b00000001 %
b00000000 &
b00000000 '
b00000000 (
b00000000 )
#127
#129
1$
b00000010 %
b00000001 &
b00000001 '
b00000001 (
b00000001 )
#131
b00000001 %
b00000000 &
b00000000 '
b00000000 (
b00000000 )
#133
b00000010 %
b00000001 &
b00000001 '
b00000001 (
b00000001 )
#135
0$
b00000011 %
b00000010 &
b00000010 '
b00000010 (
b00000010 )
#137
1$
b00000100 %
b00000011 &
b00000011 '
b00000011 (
b00000011 )
#139
0$
b00000001 %
b00000000 &
b00000000 '
b00000000 (
b00000000 )
#141
1$
b00000010 %
b00000001 &
b00000001 '
b00000001 (
b00000001 )
#143
0$
b00000001 %
b00000000 &
b00000000 '
b00000000 (
b00000000 )
#145
1$
#147
#149
#151
#153
0$
#155
1$
#157
b00000010 %
b00000001 &
b00000001 '
b00000001 (
b00000001 )
#159
0$
b00000001 %
b00000000 &
b00000000 '
b00000000 (
b00000000 )
#161
1$
b00000010 %
b00000001 &
b00000001 '
b00000001 (
b00000001 )
#163
0$
b00000011 %
b00000010 &
b00000010 '
b00000010 (
b00000010 )
#165
b00000001 %
b00000000 &
b00000000 '
b00000000 (
b00000000 )
#167
#169
#171
1$
#173
#175
0$
#177
b00000010 %
b00000001 &
b00000001 '
b00000001 (
b00000001 )
#179
b00000011 %
b00000010 &
b00000010 '
b00000010 (
b00000010 )
#181
1$
b00000001 %
b00000000 &
b00000000 '
b00000000 (
b00000000 )
#183
0$
#185
1$
b00000010 %
b00000001 &
b00000001 '
b00000001 (
b00000001 )
#187
0$
b00000001 %
b00000000 &
b00000000 '
b00000000 (
b00000000 )
#189
#191
1$
#193
0$
b00000010 %
b00000001 &
b00000001 '
b00000001 (
b00000001 )
#195
1$
b00000011 %
b00000010 &
b00000010 '
b00000010 (
b00000010 )
#197
0$
b00000100 %
b00000011 &
b00000011 '
b00000011 (
b00000011 )
#199
b00000101 %
b00000100 &
b00000100 '
b00000100 (
b00000100 )
#201
1$
b00000110 %
b00000101 &
b00000101 '
b00000101 (
b00000101 )
#203
b00000111 %
b00000110 &
b00000110 '
b00000110 (
b00000110 )
#205
b00000001 %
b00000000 &
b00000000 '
b00000000 (
b00000000 )
#207
#209
0$
#211
b00000010 %
b00000001 &
b00000001 '
b00000001 (
b00000001 )
#213
b00000001 %
b00000000 &
b00000000 '
b00000000 (
b00000000 )
#215
b00000010 %
b00000001 &
b00000001 '
b00000001 (
b00000001 )
#217
b00000001 %
b00000000 &
b00000000 '
b00000000 (
b00000000 )
#219
1$
#221
b00000010 %
b00000001 &
b00000001 '
b00000001 (
b00000001 )
#223
b00000011 %
b00000010 &
b00000010 '
b00000010 (
b00000010 )
#225
0$
b00000001 %
b00000000 &
b00000000 '
b00000000 (
b00000000 )
#227
1$
#229
0$
#231
1$
#233
0$
#235
b00000010 %
b00000001 &
b00000001 '
b00000001 (
b00000001 )
#237
1$
b00000011 %
b00000010 &
b00000010 '
b00000010 (
b00000010 )
#239
b00000100 %
b00000011 &
b00000011 '
b00000011 (
b00000011 )
#241
b00000101 %
b00000100 &
b00000100 '
b00000100 (
b00000100 )
#243
0$
b00000110 %
b00000101 &
b00000101 '
b00000101 (
b00000101 )
#245
b00000111 %
b00000110 &
b00000110 '
b00000110 (
b00000110 )
#247
1$
b00001000 %
b00000111 &
b00000111 '
b00000111 (
b00000111 )
#249
b00000001 %
b00000000 &
b00000000 '
b00000000 (
b00000000 )
#251
0$
#253
1$
b00000010 %
b00000001 &
b00000001 '
b00000001 (
b00000001 )
#255
b00000011 %
b00000010 &
b00000010 '
b00000010 (
b00000010 )
#257
b00000100 %
b00000011 &
b00000011 '
b00000011 (
b00000011 )
#259
b00000001 %
b00000000 &
b00000000 '
b00000000 (
b00000000 )
#261
0$
b00000010 %
b00000001 &
b00000001 '
b00000001 (
b00000001 )
#263
1$
b00000011 %
b00000010 &
b00000010 '
b00000010 (
b00000010 )
#265
0$
b00000001 %
b00000000 &
b00000000 '
b00000000 (
b00000000 )
#267
1$
b00000010 %
b00000001 &
b00000001 '
b00000001 (
b00000001 )
#269
b00000001 %
b00000000 &
b00000000 '
b00000000 (
b00000000 )
#271
0$
b00000010 %
b00000001 &
b00000001 '
b00000001 (
b00000001 )
#273
1$
b00000001 %
b00000000 &
b00000000 '
b00000000 (
b00000000 )
#275
b00000010 %
b00000001 &
b00000001 '
b00000001 (
b00000001 )
#277
b00000011 %
b00000010 &
b00000010 '
b00000010 (
b00000010 )
#279
b00000001 %
b00000000 &
b00000000 '
b00000000 (
b00000000 )
#281
#283
0$
b00000010 %
b00000001 &
b00000001 '
b00000001 (
b00000001 )
#285
1$
b00000001 %
b00000000 &
b00000000 '
b00000000 (
b00000000 )
#287
0$
b00000010 %
b00000001 &
b00000001 '
b00000001 (
b00000001 )
#289
1$
b00000001 %
b00000000 &
b00000000 '
b00000000 (
b00000000 )
#291
0$
b00000010 %
b00000001 &
b00000001 '
b00000001 (
b00000001 )
#293
b00000001 %
b00000000 &
b00000000 '
b00000000 (
b00000000 )
#295
1$
#297
0$
#299
1$
#301
#303
0$
#305
b00000010 %
b00000001 &
b00000001 '
b00000001 (
b00000001 )
#307
1$
b00000001 %
b00000000 &
b00000000 '
b00000000 (
b00000000 )
#309
b00000010 %
b00000001 &
b00000001 '
b00000001 (
b00000001 )
#311
0$
b00000001 %
b00000000 &
b00000000 '
b00000000 (
b00000000 )
#313
1$
b00000010 %
b00000001 &
b00000001 '
b00000001 (
b00000001 )
#315
b00000001 %
b00000000 &
b00000000 '
b00000000 (
b00000000 )
#317
0$
#319
b00000010 %
b00000001 &
b00000001 '
b00000001 (
b00000001 )
#321
b00000001 %
b00000000 &
b00000000 '
b00000000 (
b00000000 )
#323
b00000010 %
b00000001 &
b00000001 '
b00000001 (
b00000001 )
#325
b00000001 %
b00000000 &
b00000000 '
b00000000 (
b00000000 )
#327
1$
#329
b00000010 %
b00000001 &
b00000001 '
b00000001 (
b00000001 )
#331
b00000001 %
b00000000 &
b00000000 '
b00000000 (
b00000000 )
#333
0$
b00000010 %
b00000001 &
b00000001 '
b00000001 (
b00000001 )
#335
b00000001 %
b00000000 &
b00000000 '
b00000000 (
b00000000 )
#337
b00000010 %
b00000001 &
b00000001 '
b00000001 (
b00000001 )
#339
b00000001 %
b00000000 &
b00000000 '
b00000000 (
b00000000 )
#341
1$
b00000010 %
b00000001 &
b00000001 '
b00000001 (
b00000001 )
#343
b00000001 %
b00000000 &
b00000000 '
b00000000 (
b00000000 )
#345
0$
#347
b00000010 %
b00000001 &
b00000001 '
b00000001 (
b00000001 )
#349
b00000011 %
b00000010 &
b00000010 '
b00000010 (
b00000010 )
#351
b00000100 %
b00000011 &
b00000011 '
b00000011 (
b00000011 )
#353
b00000001 %
b00000000 &
b00000000 '
b00000000 (
b00000000 )
#355
b00000010 %
b00000001 &
b00000001 '
b00000001 (
b00000001 )
#357
b00000001 %
b00000000 &
b00000000 '
b00000000 (
b00000000 )
#359
b00000010 %
b00000001 &
b00000001 '
b00000001 (
b00000001 )
#361
b00000001 %
b00000000 &
b00000000 '
b00000000 (
b00000000 )
#363
1$
#365
b00000010 %
b00000001 &
b00000001 '
b00000001 (
b00000001 )
#367
0$
b00000001 %
b00000000 &
b00000000 '
b00000000 (
b00000000 )
#369
b00000010 %
b00000001 &
b00000001 '
b00000001 (
b00000001 )
#371
1$
b00000001 %
b00000000 &
b00000000 '
b00000000 (
b00000000 )
#373
#375
0$
#377
#379
#381
1$
b00000010 %
b00000001 &
b00000001 '
b00000001 (
b00000001 )
#383
0$
b00000011 %
b00000010 &
b00000010 '
b00000010 (
b00000010 )
#385
1$
b00000100 %
b00000011 &
b00000011 '
b00000011 (
b00000011 )
#387
b00000001 %
b00000000 &
b00000000 '
b00000000 (
b00000000 )
#389
#391
0$
b00000010 %
b00000001 &
b00000001 '
b00000001 (
b00000001 )
#393
b00000011 %
b00000010 &
b00000010 '
b00000010 (
b00000010 )
#395
1$
b00000100 %
b00000011 &
b00000011 '
b00000011 (
b00000011 )
#397
0$
b00000101 %
b00000100 &
b00000100 '
b00000100 (
b00000100 )
#399
1$
b00000110 %
b00000101 &
b00000101 '
b00000101 (
b00000101 )
#401
0$
b00000111 %
b00000110 &
b00000110 '
b00000110 (
b00000110 )
#403
b00000001 %
b00000000 &
b00000000 '
b00000000 (
b00000000 )
#405
1$
#407
#409
0$
#411
1$
b00000010 %
b00000001 &
b00000001 '
b00000001 (
b00000001 )
#413
b00000001 %
b00000000 &
b00000000 '
b00000000 (
b00000000 )
#415
b00000010 %
b00000001 &
b00000001 '
b00000001 (
b00000001 )
#417
0$
b00000011 %
b00000010 &
b00000010 '
b00000010 (
b00000010 )
#419
b00000001 %
b00000000 &
b00000000 '
b00000000 (
b00000000 )
#421
b00000010 %
b00000001 &
b00000001 '
b00000001 (
b00000001 )
#423
1$
b00000001 %
b00000000 &
b00000000 '
b00000000 (
b00000000 )
#425
0$
#427
1$
#429
b00000010 %
b00000001 &
b00000001 '
b00000001 (
b00000001 )
#431
b00000011 %
b00000010 &
b00000010 '
b00000010 (
b00000010 )
#433
b00000100 %
b00000011 &
b00000011 '
b00000011 (
b00000011 )
#435
b00000001 %
b00000000 &
b00000000 '
b00000000 (
b00000000 )
#437
0$
b00000010 %
b00000001 &
b00000001 '
b00000001 (
b00000001 )
#439
b00000011 %
b00000010 &
b00000010 '
b00000010 (
b00000010 )
#441
1$
b00000100 %
b00000011 &
b00000011 '
b00000011 (
b00000011 )
#443
b00000001 %
b00000000 &
b00000000 '
b00000000 (
b00000000 )
#445
0$
#447
#449
1$
#451
b00000010 %
b00000001 &
b00000001 '
b00000001 (
b00000001 )
#453
b00000011 %
b00000010 &
b00000010 '
b00000010 (
b00000010 )
#455
b00000001 %
b00000000 &
b00000000 '
b00000000 (
b00000000 )
#457
#459
#461
0$
b00000010 %
b00000001 &
b00000001 '
b00000001 (
b00000001 )
#463
1$
b00000011 %
b00000010 &
b00000010 '
b00000010 (
b00000010 )
#465
b00000001 %
b00000000 &
b00000000 '
b00000000 (
b00000000 )
#467
0$
#469
b00000010 %
b00000001 &
b00000001 '
b00000001 (
b00000001 )
#471
1$
b00000011 %
b00000010 &
b00000010 '
b00000010 (
b00000010 )
#473
b00000100 %
b00000011 &
b00000011 '
b00000011 (
b00000011 )
#475
0$
b00000001 %
b00000000 &
b00000000 '
b00000000 (
b00000000 )
#477
b00000010 %
b00000001 &
b00000001 '
b00000001 (
b00000001 )
#479
1$
b00000011 %
b00000010 &
b00000010 '
b00000010 (
b00000010 )
#481
b00000100 %
b00000011 &
b00000011 '
b00000011 (
b00000011 )
#483
b00000001 %
b00000000 &
b00000000 '
b00000000 (
b00000000 )
#485
b00000010 %
b00000001 &
b00000001 '
b00000001 (
b00000001 )
#487
b00000011 %
b00000010 &
b00000010 '
b00000010 (
b00000010 )
#489
0$
b00000100 %
b00000011 &
b00000011 '
b00000011 (
b00000011 )
#491
1$
b00000001 %
b00000000 &
b00000000 '
b00000000 (
b00000000 )
#493
#495
b00000010 %
b00000001 &
b00000001 '
b00000001 (
b00000001 )
#497
b00000001 %
b00000000 &
b00000000 '
b00000000 (
b00000000 )
#499
0$
#501
1$
#503
b00000010 %
b00000001 &
b00000001 '
b00000001 (
b00000001 )
#505
0$
b00000011 %
b00000010 &
b00000010 '
b00000010 (
b00000010 )
#507
1$
b00000001 %
b00000000 &
b00000000 '
b00000000 (
b00000000 )
#509
0$
#511
b00000010 %
b00000001 &
b00000001 '
b00000001 (
b00000001 )
#513
1$
b00000011 %
b00000010 &
b00000010 '
b00000010 (
b00000010 )
#515
b00000100 %
b00000011 &
b00000011 '
b00000011 (
b00000011 )
#517
0$
b00000001 %
b00000000 &
b00000000 '
b00000000 (
b00000000 )
#519
#521
1$
#523
#525
0$
#527
b00000010 %
b00000001 &
b00000001 '
b00000001 (
b00000001 )
#529
1$
b00000001 %
b00000000 &
b00000000 '
b00000000 (
b00000000 )
#531
#533
0$
b00000010 %
b00000001 &
b00000001 '
b00000001 (
b00000001 )
#535
1$
b00000011 %
b00000010 &
b00000010 '
b00000010 (
b00000010 )
#537
0$
b00000001 %
b00000000 &
b00000000 '
b00000000 (
b00000000 )
#539
1$
#541
b00000010 %
b00000001 &
b00000001 '
b00000001 (
b00000001 )
#543
0$
b00000011 %
b00000010 &
b00000010 '
b00000010 (
b00000010 )
#545
b00000001 %
b00000000 &
b00000000 '
b00000000 (
b00000000 )
#547
b00000010 %
b00000001 &
b00000001 '
b00000001 (
b00000001 )
#549
b00000011 %
b00000010 &
b00000010 '
b00000010 (
b00000010 )
#551
1$
b00000001 %
b00000000 &
b00000000 '
b00000000 (
b00000000 )
#553
b00000010 %
b00000001 &
b00000001 '
b00000001 (
b00000001 )
#555
0$
b00000011 %
b00000010 &
b00000010 '
b00000010 (
b00000010 )
#557
1$
b00000100 %
b00000011 &
b00000011 '
b00000011 (
b00000011 )
#559
b00000101 %
b00000100 &
b00000100 '
b00000100 (
b00000100 )
#561
0$
b00000110 %
b00000101 &
b00000101 '
b00000101 (
b00000101 )
#563
1$
b00000111 %
b00000110 &
b00000110 '
b00000110 (
b00000110 )
#565
b00001000 %
b00000111 &
b00000111 '
b00000111 (
b00000111 )
#567
b00000001 %
b00000000 &
b00000000 '
b00000000 (
b00000000 )
#569
#571
0$
#573
#575
#577
b00000010 %
b00000001 &
b00000001 '
b00000001 (
b00000001 )
#579
1$
b00000011 %
b00000010 &
b00000010 '
b00000010 (
b00000010 )
#581
0$
b00000100 %
b00000011 &
b00000011 '
b00000011 (
b00000011 )
#583
b00000001 %
b00000000 &
b00000000 '
b00000000 (
b00000000 )
#585
1$
b00000010 %
b00000001 &
b00000001 '
b00000001 (
b00000001 )
#587
0$
b00000011 %
b00000010 &
b00000010 '
b00000010 (
b00000010 )
#589
1$
b00000001 %
b00000000 &
b00000000 '
b00000000 (
b00000000 )
#591
#593
b00000010 %
b00000001 &
b00000001 '
b00000001 (
b00000001 )
#595
0$
b00000001 %
b00000000 &
b00000000 '
b00000000 (
b00000000 )
#597
b00000010 %
b00000001 &
b00000001 '
b00000001 (
b00000001 )
#599
1$
b00000011 %
b00000010 &
b00000010 '
b00000010 (
b00000010 )
#601
0$
b00000100 %
b00000011 &
b00000011 '
b00000011 (
b00000011 )
#603
b00000101 %
b00000100 &
b00000100 '
b00000100 (
b00000100 )
#605
1$
b00000110 %
b00000101 &
b00000101 '
b00000101 (
b00000101 )
#607
0$
b00000111 %
b00000110 &
b00000110 '
b00000110 (
b00000110 )
#609
b00001000 %
b00000111 &
b00000111 '
b00000111 (
b00000111 )
#611
b00001001 %
b00001000 &
b00001000 '
b00001000 (
b00001000 )
#613
1$
b00000001 %
b00000000 &
b00000000 '
b00000000 (
b00000000 )
#615
b00000010 %
b00000001 &
b00000001 '
b00000001 (
b00000001 )
#617
0$
b00000001 %
b00000000 &
b00000000 '
b00000000 (
b00000000 )
#619
1$
b00000010 %
b00000001 &
b00000001 '
b00000001 (
b00000001 )
#621
b00000011 %
b00000010 &
b00000010 '
b00000010 (
b00000010 )
#623
0$
b00000100 %
b00000011 &
b00000011 '
b00000011 (
b00000011 )
#625
b00000001 %
b00000000 &
b00000000 '
b00000000 (
b00000000 )
#627
1$
#629
0$
b00000010 %
b00000001 &
b00000001 '
b00000001 (
b00000001 )
#631
1$
b00000001 %
b00000000 &
b00000000 '
b00000000 (
b00000000 )
#633
0$
#635
b00000010 %
b00000001 &
b00000001 '
b00000001 (
b00000001 )
#637
1$
b00000011 %
b00000010 &
b00000010 '
b00000010 (
b00000010 )
#639
b00000100 %
b00000011 &
b00000011 '
b00000011 (
b00000011 )
#641
0$
b00000101 %
b00000100 &
b00000100 '
b00000100 (
b00000100 )
#643
1$
b00000001 %
b00000000 &
b00000000 '
b00000000 (
b00000000 )
#645
b00000010 %
b00000001 &
b00000001 '
b00000001 (
b00000001 )
#647
0$
b00000011 %
b00000010 &
b00000010 '
b00000010 (
b00000010 )
#649
b00000100 %
b00000011 &
b00000011 '
b00000011 (
b00000011 )
#651
1$
b00000001 %
b00000000 &
b00000000 '
b00000000 (
b00000000 )
#653
#655
0$
#657
#659
b00000010 %
b00000001 &
b00000001 '
b00000001 (
b00000001 )
#661
b00000001 %
b00000000 &
b00000000 '
b00000000 (
b00000000 )
#663
b00000010 %
b00000001 &
b00000001 '
b00000001 (
b00000001 )
#665
b00000001 %
b00000000 &
b00000000 '
b00000000 (
b00000000 )
#667
#669
b00000010 %
b00000001 &
b00000001 '
b00000001 (
b00000001 )
#671
b00000001 %
b00000000 &
b00000000 '
b00000000 (
b00000000 )
#673
1$
b00000010 %
b00000001 &
b00000001 '
b00000001 (
b00000001 )
#675
0$
b00000011 %
b00000010 &
b00000010 '
b00000010 (
b00000010 )
#677
1$
b00000001 %
b00000000 &
b00000000 '
b00000000 (
b00000000 )
#679
b00000010 %
b00000001 &
b00000001 '
b00000001 (
b00000001 )
#681
0$
b00000001 %
b00000000 &
b00000000 '
b00000000 (
b00000000 )
#683
#685
#687
b00000010 %
b00000001 &
b00000001 '
b00000001 (
b00000001 )
#689
b00000001 %
b00000000 &
b00000000 '
b00000000 (
b00000000 )
#691
b00000010 %
b00000001 &
b00000001 '
b00000001 (
b00000001 )
#693
1$
b00000011 %
b00000010 &
b00000010 '
b00000010 (
b00000010 )
#695
b00000001 %
b00000000 &
b00000000 '
b00000000 (
b00000000 )
#697
0$
#699
#701
#703
1$
#705
0$
b00000010 %
b00000001 &
b00000001 '
b00000001 (
b00000001 )
#707
1$
b00000001 %
b00000000 &
b00000000 '
b00000000 (
b00000000 )
#709
#711
#713
0$
#715
#717
b00000010 %
b00000001 &
b00000001 '
b00000001 (
b00000001 )
#719
b00000001 %
b00000000 &
b00000000 '
b00000000 (
b00000000 )
#721
b00000010 %
b00000001 &
b00000001 '
b00000001 (
b00000001 )
#723
1$
b00000001 %
b00000000 &
b00000000 '
b00000000 (
b00000000 )
#725
0$
#727
b00000010 %
b00000001 &
b00000001 '
b00000001 (
b00000001 )
#729
b00000011 %
b00000010 &
b00000010 '
b00000010 (
b00000010 )
#731
1$
b00000100 %
b00000011 &
b00000011 '
b00000011 (
b00000011 )
#733
b00000101 %
b00000100 &
b00000100 '
b00000100 (
b00000100 )
#735
0$
b00000001 %
b00000000 &
b00000000 '
b00000000 (
b00000000 )
#737
b00000010 %
b00000001 &
b00000001 '
b00000001 (
b00000001 )
#739
1$
b00000011 %
b00000010 &
b00000010 '
b00000010 (
b00000010 )
#741
b00000001 %
b00000000 &
b00000000 '
b00000000 (
b00000000 )
#743
b00000010 %
b00000001 &
b00000001 '
b00000001 (
b00000001 )
#745
0$
b00000011 %
b00000010 &
b00000010 '
b00000010 (
b00000010 )
#747
1$
b00000100 %
b00000011 &
b00000011 '
b00000011 (
b00000011 )
#749
0$
b00000001 %
b00000000 &
b00000000 '
b00000000 (
b00000000 )
#751
b00000010 %
b00000001 &
b00000001 '
b00000001 (
b00000001 )
#753
1$
b00000001 %
b00000000 &
b00000000 '
b00000000 (
b00000000 )
#755
b00000010 %
b00000001 &
b00000001 '
b00000001 (
b00000001 )
#757
b00000001 %
b00000000 &
b00000000 '
b00000000 (
b00000000 )
#759
b00000010 %
b00000001 &
b00000001 '
b00000001 (
b00000001 )
#761
b00000001 %
b00000000 &
b00000000 '
b00000000 (
b00000000 )
#763
0$
#765
b00000010 %
b00000001 &
b00000001 '
b00000001 (
b00000001 )
#767
b00000001 %
b00000000 &
b00000000 '
b00000000 (
b00000000 )
#769
b00000010 %
b00000001 &
b00000001 '
b00000001 (
b00000001 )
#771
b00000001 %
b00000000 &
b00000000 '
b00000000 (
b00000000 )
#773
b00000010 %
b00000001 &
b00000001 '
b00000001 (
b00000001 )
#775
1$
b00000011 %
b00000010 &
b00000010 '
b00000010 (
b00000010 )
#777
0$
b00000100 %
b00000011 &
b00000011 '
b00000011 (
b00000011 )
#779
1$
b00000001 %
b00000000 &
b00000000 '
b00000000 (
b00000000 )
#781
0$
#783
1$
b00000010 %
b00000001 &
b00000001 '
b00000001 (
b00000001 )
#785
b00000011 %
b00000010 &
b00000010 '
b00000010 (
b00000010 )
#787
b00000100 %
b00000011 &
b00000011 '
b00000011 (
b00000011 )
#789
b00000101 %
b00000100 &
b00000100 '
b00000100 (
b00000100 )
#791
0$
b00000001 %
b00000000 &
b00000000 '
b00000000 (
b00000000 )
#793
b00000010 %
b00000001 &
b00000001 '
b00000001 (
b00000001 )
#795
b00000001 %
b00000000 &
b00000000 '
b00000000 (
b00000000 )
#797
1$
b00000010 %
b00000001 &
b00000001 '
b00000001 (
b00000001 )
#799
0$
b00000011 %
b00000010 &
b00000010 '
b00000010 (
b00000010 )
#801
b00000001 %
b00000000 &
b00000000 '
b00000000 (
b00000000 )
#803
1$
#805
0$
b00000010 %
b00000001 &
b00000001 '
b00000001 (
b00000001 )
#807
1$
b00000001 %
b00000000 &
b00000000 '
b00000000 (
b00000000 )
#809
#811
#813
0$
#815
b00000010 %
b00000001 &
b00000001 '
b00000001 (
b00000001 )
#817
1$
b00000001 %
b00000000 &
b00000000 '
b00000000 (
b00000000 )
#819
0$
#821
1$
#823
0$
#825
b00000010 %
b00000001 &
b00000001 '
b00000001 (
b00000001 )
#827
b00000011 %
b00000010 &
b00000010 '
b00000010 (
b00000010 )
#829
1$
b00000001 %
b00000000 &
b00000000 '
b00000000 (
b00000000 )
#831
#833
0$
b00000010 %
b00000001 &
b00000001 '
b00000001 (
b00000001 )
#835
b00000011 %
b00000010 &
b00000010 '
b00000010 (
b00000010 )
#837
b00000100 %
b00000011 &
b00000011 '
b00000011 (
b00000011 )
#839
b00000001 %
b00000000 &
b00000000 '
b00000000 (
b00000000 )
#841
#843
b00000010 %
b00000001 &
b00000001 '
b00000001 (
b00000001 )
#845
b00000001 %
b00000000 &
b00000000 '
b00000000 (
b00000000 )
#847
1$
b00000010 %
b00000001 &
b00000001 '
b00000001 (
b00000001 )
#849
b00000001 %
b00000000 &
b00000000 '
b00000000 (
b00000000 )
#851
b00000010 %
b00000001 &
b00000001 '
b00000001 (
b00000001 )
#853
0$
b00000001 %
b00000000 &
b00000000 '
b00000000 (
b00000000 )
#855
1$
#857
#859
#861
0$
b00000010 %
b00000001 &
b00000001 '
b00000001 (
b00000001 )
#863
1$
b00000011 %
b00000010 &
b00000010 '
b00000010 (
b00000010 )
#865
0$
b00000001 %
b00000000 &
b00000000 '
b00000000 (
b00000000 )
#867
1$
#869
#871
#873
0$
b00000010 %
b00000001 &
b00000001 '
b00000001 (
b00000001 )
#875
1$
b00000011 %
b00000010 &
b00000010 '
b00000010 (
b00000010 )
#877
b00000001 %
b00000000 &
b00000000 '
b00000000 (
b00000000 )
#879
b00000010 %
b00000001 &
b00000001 '
b00000001 (
b00000001 )
#881
b00000011 %
b00000010 &
b00000010 '
b00000010 (
b00000010 )
#883
0$
b00000001 %
b00000000 &
b00000000 '
b00000000 (
b00000000 )
#885
b00000010 %
b00000001 &
b00000001 '
b00000001 (
b00000001 )
#887
1$
b00000011 %
b00000010 &
b00000010 '
b00000010 (
b00000010 )
#889
b00000001 %
b00000000 &
b00000000 '
b00000000 (
b00000000 )
#891
0$
#893
1$
#895
#897
#899
b00000010 %
b00000001 &
b00000001 '
b00000001 (
b00000001 )
#901
b00000011 %
b00000010 &
b00000010 '
b00000010 (
b00000010 )
#903
0$
b00000001 %
b00000000 &
b00000000 '
b00000000 (
b00000000 )
#905
1$
b00000010 %
b00000001 &
b00000001 '
b00000001 (
b00000001 )
#907
b00000001 %
b00000000 &
b00000000 '
b00000000 (
b00000000 )
#909
b00000010 %
b00000001 &
b00000001 '
b00000001 (
b00000001 )
#911
0$
b00000011 %
b00000010 &
b00000010 '
b00000010 (
b00000010 )
#913
1$
b00000100 %
b00000011 &
b00000011 '
b00000011 (
b00000011 )
#915
0$
b00000101 %
b00000100 &
b00000100 '
b00000100 (
b00000100 )
#917
b00000001 %
b00000000 &
b00000000 '
b00000000 (
b00000000 )
#919
1$
b00000010 %
b00000001 &
b00000001 '
b00000001 (
b00000001 )
#921
0$
b00000011 %
b00000010 &
b00000010 '
b00000010 (
b00000010 )
#923
1$
b00000001 %
b00000000 &
b00000000 '
b00000000 (
b00000000 )
#925
0$
#927
1$
#929
#931
0$
#933
#935
#937
b00000010 %
b00000001 &
b00000001 '
b00000001 (
b00000001 )
#939
1$
b00000001 %
b00000000 &
b00000000 '
b00000000 (
b00000000 )
#941
0$
b00000010 %
b00000001 &
b00000001 '
b00000001 (
b00000001 )
#943
1$
b00000001 %
b00000000 &
b00000000 '
b00000000 (
b00000000 )
#945
0$
b00000010 %
b00000001 &
b00000001 '
b00000001 (
b00000001 )
#947
b00000011 %
b00000010 &
b00000010 '
b00000010 (
b00000010 )
#949
b00000001 %
b00000000 &
b00000000 '
b00000000 (
b00000000 )
#951
#953
b00000010 %
b00000001 &
b00000001 '
b00000001 (
b00000001 )
#955
b00000001 %
b00000000 &
b00000000 '
b00000000 (
b00000000 )
#957
b00000010 %
b00000001 &
b00000001 '
b00000001 (
b00000001 )
#959
b00000001 %
b00000000 &
b00000000 '
b00000000 (
b00000000 )
#961
1$
#963
#965
b00000010 %
b00000001 &
b00000001 '
b00000001 (
b00000001 )
#967
b00000011 %
b00000010 &
b00000010 '
b00000010 (
b00000010 )
#969
b00000001 %
b00000000 &
b00000000 '
b00000000 (
b00000000 )
