src/tests/resources/operation/hw/aggregate_constant2/trace_vtor.vcd
$version Generated by VerilatedVcd $end
$timescale 1ps $end
 $scope module Foo $end
  $var wire 2 # a [1:0] $end
  $var wire 8 $ b [7:0] $end
  $var wire 8 % res [7:0] $end
  $scope module Foo $end
   $var wire 2 # a [1:0] $end
   $var wire 8 $ b [7:0] $end
   $var wire 8 % res [7:0] $end
  $upscope $end
 $upscope $end
$enddefinitions $end


#0
b00 #
b10011011 $
b10011101 %
#1
b01101011 $
b01101101 %
#2
b11 #
b10100110 $
b10100101 %
#3
b10 #
b01110111 $
b01110111 %
#4
b11 #
b10001011 $
b10001010 %
#5
b01 #
b01010000 $
b01010001 %
#6
b11 #
b00101100 $
b00101011 %
#7
b11110011 $
b11110010 %
#8
b10 #
b10000101 $
b10000101 %
#9
b00 #
b10101000 $
b10101010 %
#10
b11 #
b01001001 $
b01001000 %
#11
b01010111 $
b01010110 %
#12
b00 #
b01101111 $
b01110001 %
#13
b11100011 $
b11100101 %
#14
b11 #
b10000111 $
b10000110 %
#15
b00 #
b01100110 $
b01101000 %
#16
b01 #
b00100001 $
b00100010 %
#17
b10001001 $
b10001010 %
#18
b10 #
b00011001 $
b00011001 %
#19
b00 #
b10100011 $
b10100101 %
#20
b11111010 $
b11111100 %
#21
b10 #
b10101000 $
b10101000 %
#22
b01 #
b10100011 $
b10100100 %
#23
b10 #
b11100110 $
b11100110 %
#24
b11 #
b10100110 $
b10100101 %
#25
b11110011 $
b11110010 %
#26
b10 #
b00010111 $
b00010111 %
#27
b01 #
b01011100 $
b01011101 %
#28
b00 #
b00001111 $
b00010001 %
#29
b11 #
b11000010 $
b11000001 %
#30
b01 #
b01110000 $
b01110001 %
#31
b00 #
b11011000 $
b11011010 %
#32
b01 #
b11001100 $
b11001101 %
#33
b00 #
b00101011 $
b00101101 %
#34
b10 #
b00001101 $
b00001101 %
#35
b00111101 $
b00111101 %
#36
b01 #
b11011011 $
b11011100 %
#37
b11 #
b00000011 $
b00000010 %
#38
b00 #
b00001111 $
b00010001 %
#39
b11100010 $
b11100100 %
#40
b01 #
b10000000 $
b10000001 %
#41
b11 #
b01100011 $
b01100010 %
#42
b11111101 $
b11111100 %
#43
b10 #
b11101010 $
b11101010 %
#44
b01011110 $
b01011110 %
#45
b00101000 $
b00101000 %
#46
b11 #
b00010110 $
b00010101 %
#47
b00 #
b00110010 $
b00110100 %
#48
b10 #
b00001011 $
b00001011 %
#49
b01 #
b00010110 $
b00010111 %
#50
b00 #
b10000001 $
b10000011 %
#51
b11 #
b00100101 $
b00100100 %
#52
b00 #
b11011110 $
b11100000 %
#53
b11 #
b11001101 $
b11001100 %
#54
b10100001 $
b10100000 %
#55
b00 #
b11010111 $
b11011001 %
#56
b11 #
b00111111 $
b00111110 %
#57
b01 #
b00010101 $
b00010110 %
#58
b01111011 $
b01111100 %
#59
b11 #
b00001100 $
b00001011 %
#60
b01 #
b11111001 $
b11111010 %
#61
b00 #
b00010010 $
b00010100 %
#62
b11111101 $
b11111111 %
#63
b11 #
b00111000 $
b00110111 %
#64
b00 #
b10011101 $
b10011111 %
#65
b10 #
b01011110 $
b01011110 %
#66
b00 #
b01011010 $
b01011100 %
#67
b11 #
b01010110 $
b01010101 %
#68
b00 #
b01100010 $
b01100100 %
#69
b10 #
b00010110 $
b00010110 %
#70
b11011001 $
b11011001 %
#71
b01 #
b10011111 $
b10100000 %
#72
b11 #
b00100110 $
b00100101 %
#73
b00 #
b10000011 $
b10000101 %
#74
b11000010 $
b11000100 %
#75
b10 #
b00110001 $
b00110001 %
#76
b00 #
b10101101 $
b10101111 %
#77
b01 #
b01000011 $
b01000100 %
#78
b10 #
b01011101 $
b01011101 %
#79
b01 #
b00100100 $
b00100101 %
#80
b00 #
b10100110 $
b10101000 %
#81
b11 #
b01101110 $
b01101101 %
#82
b11001000 $
b11000111 %
#83
b01 #
b01111111 $
b10000000 %
#84
b10 #
b11110000 $
b11110000 %
#85
b00 #
b01000110 $
b01001000 %
#86
b11 #
b11101011 $
b11101010 %
#87
b10001010 $
b10001001 %
#88
b00 #
b10111010 $
b10111100 %
#89
b10 #
b10001001 $
b10001001 %
#90
b00110000 $
b00110000 %
#91
b00 #
b11011000 $
b11011010 %
#92
b11 #
b10011101 $
b10011100 %
#93
b10 #
b11010110 $
b11010110 %
#94
b00 #
b10011000 $
b10011010 %
#95
b10111011 $
b10111101 %
#96
b01101010 $
b01101100 %
#97
b01 #
b00001111 $
b00010000 %
#98
b10 #
b11010101 $
b11010101 %
#99
b01 #
b11111110 $
b11111111 %
#100
b11 #
b10001100 $
b10001011 %
#101
b10111101 $
b10111100 %
#102
b10 #
b10000100 $
b10000100 %
#103
b00 #
b11000001 $
b11000011 %
#104
b10 #
b00010001 $
b00010001 %
#105
b00 #
b10011000 $
b10011010 %
#106
b10 #
b00110011 $
b00110011 %
#107
b00100010 $
b00100010 %
#108
b00 #
b00010100 $
b00010110 %
#109
b01001110 $
b01010000 %
#110
b11 #
b10000001 $
b10000000 %
#111
b01 #
b11011000 $
b11011001 %
#112
b10 #
b11101001 $
b11101001 %
#113
b01 #
b10110100 $
b10110101 %
#114
b11101010 $
b11101011 %
#115
b00 #
b11110000 $
b11110010 %
#116
b10 #
b00011100 $
b00011100 %
#117
b11011010 $
b11011010 %
#118
b01110000 $
b01110000 %
#119
b00 #
b11111011 $
b11111101 %
#120
b01 #
b11000111 $
b11001000 %
#121
b11010111 $
b11011000 %
#122
b00101001 $
b00101010 %
#123
b00000100 $
b00000101 %
#124
b00 #
b11111110 $
b00000000 %
#125
b11 #
b10000100 $
b10000011 %
#126
b10 #
b01101111 $
b01101111 %
#127
b11 #
b11001010 $
b11001001 %
#128
b10 #
b10110011 $
b10110011 %
#129
b11 #
b01111100 $
b01111011 %
#130
b01110101 $
b01110100 %
#131
b10 #
b10100010 $
b10100010 %
#132
b11 #
b01110000 $
b01101111 %
#133
b01 #
b10111101 $
b10111110 %
#134
b00 #
b01100000 $
b01100010 %
#135
b11 #
b11111000 $
b11110111 %
#136
b10101100 $
b10101011 %
#137
b10110011 $
b10110010 %
#138
b01 #
b10010000 $
b10010001 %
#139
b10 #
b11111100 $
b11111100 %
#140
b11 #
b00110010 $
b00110001 %
#141
b01111011 $
b01111010 %
#142
b10 #
b10110010 $
b10110010 %
#143
b00 #
b00111101 $
b00111111 %
#144
b11110111 $
b11111001 %
#145
b11 #
b01001111 $
b01001110 %
#146
b01 #
b10101010 $
b10101011 %
#147
b11 #
b10001101 $
b10001100 %
#148
b00 #
b01000011 $
b01000101 %
#149
b11 #
b00011010 $
b00011001 %
#150
b10011010 $
b10011001 %
#151
b00011001 $
b00011000 %
#152
b00 #
b00011110 $
b00100000 %
#153
b01110110 $
b01111000 %
#154
b01 #
b11111110 $
b11111111 %
#155
b11 #
b11110101 $
b11110100 %
#156
b01001101 $
b01001100 %
#157
b01 #
b11111101 $
b11111110 %
#158
b11101110 $
b11101111 %
#159
b11 #
b10011011 $
b10011010 %
#160
b01 #
b00111001 $
b00111010 %
#161
b10 #
b10010010 $
b10010010 %
#162
b11010100 $
b11010100 %
#163
b10100010 $
b10100010 %
#164
b01101100 $
b01101100 %
#165
b11 #
b10011010 $
b10011001 %
#166
b01 #
b01100000 $
b01100001 %
#167
b10 #
b01000010 $
b01000010 %
#168
b01010000 $
b01010000 %
#169
b00 #
b11111011 $
b11111101 %
#170
b11 #
b01010010 $
b01010001 %
#171
b00 #
b01100010 $
b01100100 %
#172
b01001111 $
b01010001 %
#173
b11 #
b11011001 $
b11011000 %
#174
b01 #
b00011011 $
b00011100 %
#175
b11 #
b11011111 $
b11011110 %
#176
b00 #
b11111111 $
b00000001 %
#177
b01 #
b11000001 $
b11000010 %
#178
b00 #
b10010101 $
b10010111 %
#179
b10 #
b00111110 $
b00111110 %
#180
b01 #
b01000110 $
b01000111 %
#181
b11 #
b01001110 $
b01001101 %
#182
b00 #
b00111111 $
b01000001 %
#183
b01 #
b10011100 $
b10011101 %
#184
b11 #
b10000000 $
b01111111 %
#185
b00011101 $
b00011100 %
#186
b00010010 $
b00010001 %
#187
b01 #
b10001000 $
b10001001 %
#188
b00 #
b10001001 $
b10001011 %
#189
b01010111 $
b01011001 %
#190
b01 #
b01111011 $
b01111100 %
#191
b11 #
b00010110 $
b00010101 %
#192
b00 #
b01000100 $
b01000110 %
#193
b01 #
b01111111 $
b10000000 %
#194
b10 #
b00100111 $
b00100111 %
#195
b00 #
b10010010 $
b10010100 %
#196
b11 #
b10001110 $
b10001101 %
#197
b01011100 $
b01011011 %
#198
b01111011 $
b01111010 %
#199
b00 #
b01011110 $
b01100000 %
#200
b10 #
b10100010 $
b10100010 %
#201
b00 #
b10100100 $
b10100110 %
#202
b01 #
b11111001 $
b11111010 %
#203
b10 #
b01111101 $
b01111101 %
#204
b11 #
b10110011 $
b10110010 %
#205
b11111111 $
b11111110 %
#206
b00 #
b10101110 $
b10110000 %
#207
b10111100 $
b10111110 %
#208
b11111111 $
b00000001 %
#209
b10 #
b11110001 $
b11110001 %
#210
b11 #
b00000010 $
b00000001 %
#211
b00 #
b10101110 $
b10110000 %
#212
b00111111 $
b01000001 %
#213
b11 #
b11010101 $
b11010100 %
#214
b01111100 $
b01111011 %
#215
b01 #
b10110110 $
b10110111 %
#216
b10101011 $
b10101100 %
#217
b11 #
b11000110 $
b11000101 %
#218
b10 #
b11111001 $
b11111001 %
#219
b00 #
b11101000 $
b11101010 %
#220
b11 #
b11100010 $
b11100001 %
#221
b00110001 $
b00110000 %
#222
b00 #
b11110110 $
b11111000 %
#223
b01 #
b11011011 $
b11011100 %
#224
b10100001 $
b10100010 %
#225
b11 #
b11001100 $
b11001011 %
#226
b10 #
b11100011 $
b11100011 %
#227
b01 #
b00001111 $
b00010000 %
#228
b00 #
b10111110 $
b11000000 %
#229
b01 #
b00011001 $
b00011010 %
#230
b11 #
b00111100 $
b00111011 %
#231
b01 #
b10110101 $
b10110110 %
#232
b00 #
b10000100 $
b10000110 %
#233
b01 #
b01110001 $
b01110010 %
#234
b11 #
b00011100 $
b00011011 %
#235
b10 #
b00100101 $
b00100101 %
#236
b00 #
b10010111 $
b10011001 %
#237
b11 #
b10111000 $
b10110111 %
#238
b00000011 $
b00000010 %
#239
b01 #
b00101111 $
b00110000 %
#240
b00010001 $
b00010010 %
#241
b10 #
b01000010 $
b01000010 %
#242
b01 #
b01110000 $
b01110001 %
#243
b00 #
b11000001 $
b11000011 %
#244
b01100001 $
b01100011 %
#245
b11101101 $
b11101111 %
#246
b11 #
b01100000 $
b01011111 %
#247
b00111011 $
b00111010 %
#248
b01 #
b00000111 $
b00001000 %
#249
b11 #
b10101001 $
b10101000 %
#250
b11010011 $
b11010010 %
#251
b01 #
b10101111 $
b10110000 %
#252
b11 #
b11110111 $
b11110110 %
#253
b11000010 $
b11000001 %
#254
b00 #
b00000011 $
b00000101 %
#255
b01 #
b11001011 $
b11001100 %
#256
b00 #
b11001100 $
b11001110 %
#257
b10 #
b10101110 $
b10101110 %
#258
b01 #
b11110010 $
b11110011 %
#259
b10 #
b11101000 $
b11101000 %
#260
b01 #
b00101011 $
b00101100 %
#261
b11011100 $
b11011101 %
#262
b11 #
b11000111 $
b11000110 %
#263
b01 #
b11111110 $
b11111111 %
#264
b01000000 $
b01000001 %
#265
b10011010 $
b10011011 %
#266
b11 #
b11111110 $
b11111101 %
#267
b00 #
b01011010 $
b01011100 %
#268
b01011101 $
b01011111 %
#269
b01 #
b11110110 $
b11110111 %
#270
b00 #
b11111000 $
b11111010 %
#271
b10 #
b00001111 $
b00001111 %
#272
b00 #
b10100100 $
b10100110 %
#273
b11 #
b10011110 $
b10011101 %
#274
b01 #
b11011110 $
b11011111 %
#275
b00111110 $
b00111111 %
#276
b10 #
b11110010 $
b11110010 %
#277
b00 #
b01011111 $
b01100001 %
#278
b10111001 $
b10111011 %
#279
b11 #
b10111011 $
b10111010 %
#280
b01 #
b01000010 $
b01000011 %
#281
b11101010 $
b11101011 %
#282
b11100011 $
b11100100 %
#283
b00 #
b01111010 $
b01111100 %
#284
b11 #
b10011111 $
b10011110 %
#285
b10000100 $
b10000011 %
#286
b01 #
b10010101 $
b10010110 %
#287
b10 #
b01010101 $
b01010101 %
#288
b00 #
b01001000 $
b01001010 %
#289
b10010010 $
b10010100 %
#290
b10 #
b11001100 $
b11001100 %
#291
b11110110 $
b11110110 %
#292
b00 #
b11100001 $
b11100011 %
#293
b11100111 $
b11101001 %
#294
b01 #
b10110001 $
b10110010 %
#295
b10 #
b00100000 $
b00100000 %
#296
b01 #
b01111001 $
b01111010 %
#297
b10 #
b00110010 $
b00110010 %
#298
b00 #
b00101011 $
b00101101 %
#299
b10 #
b10000000 $
b10000000 %
#300
b10100001 $
b10100001 %
#301
b01 #
b10100011 $
b10100100 %
#302
b11 #
b00110101 $
b00110100 %
#303
b01 #
b10110011 $
b10110100 %
#304
b00 #
b00010011 $
b00010101 %
#305
b01 #
b00001111 $
b00010000 %
#306
b10111101 $
b10111110 %
#307
b10 #
b10010011 $
b10010011 %
#308
b11 #
b00011001 $
b00011000 %
#309
b10 #
b11100101 $
b11100101 %
#310
b01 #
b01111101 $
b01111110 %
#311
b11 #
b10000101 $
b10000100 %
#312
b01 #
b01101101 $
b01101110 %
#313
b00 #
b11111101 $
b11111111 %
#314
b11 #
b01100011 $
b01100010 %
#315
b00 #
b00100001 $
b00100011 %
#316
b11 #
b01011101 $
b01011100 %
#317
b01101001 $
b01101000 %
#318
b01 #
b00011110 $
b00011111 %
#319
b11 #
b00101001 $
b00101000 %
#320
b10 #
b01111010 $
b01111010 %
#321
b00 #
b11001010 $
b11001100 %
#322
b01 #
b11011011 $
b11011100 %
#323
b11 #
b00001010 $
b00001001 %
#324
b01010110 $
b01010101 %
#325
b00 #
b00000001 $
b00000011 %
#326
b01 #
b10010001 $
b10010010 %
#327
b10 #
b01001111 $
b01001111 %
#328
b00 #
b01111001 $
b01111011 %
#329
b01 #
b11111101 $
b11111110 %
#330
b00 #
b10010100 $
b10010110 %
#331
b11 #
b10101011 $
b10101010 %
#332
b10011100 $
b10011011 %
#333
b00 #
b01101011 $
b01101101 %
#334
b01 #
b10110110 $
b10110111 %
#335
b11 #
b11010111 $
b11010110 %
#336
b01010110 $
b01010101 %
#337
b00 #
b10010101 $
b10010111 %
#338
b11011100 $
b11011110 %
#339
b01 #
b00111111 $
b01000000 %
#340
b00101011 $
b00101100 %
#341
b00 #
b11100110 $
b11101000 %
#342
b11 #
b00010001 $
b00010000 %
#343
b01 #
b11000000 $
b11000001 %
#344
b10 #
b01001111 $
b01001111 %
#345
b11 #
b00001110 $
b00001101 %
#346
b01 #
b00111111 $
b01000000 %
#347
b00010001 $
b00010010 %
#348
b10 #
b00100011 $
b00100011 %
#349
b01 #
b10101001 $
b10101010 %
#350
b00 #
b11100000 $
b11100010 %
#351
b10 #
b01100101 $
b01100101 %
#352
b11 #
b00010001 $
b00010000 %
#353
b01 #
b11110110 $
b11110111 %
#354
b00 #
b00100011 $
b00100101 %
#355
b11 #
b10101110 $
b10101101 %
#356
b01 #
b01001011 $
b01001100 %
#357
b10 #
b01000000 $
b01000000 %
#358
b11100011 $
b11100011 %
#359
b10100110 $
b10100110 %
#360
b11 #
b00011100 $
b00011011 %
#361
b01 #
b11001000 $
b11001001 %
#362
b01110100 $
b01110101 %
#363
b11011010 $
b11011011 %
#364
b11 #
b01101001 $
b01101000 %
#365
b10101100 $
b10101011 %
#366
b01 #
b11000011 $
b11000100 %
#367
b10 #
b11011010 $
b11011010 %
#368
b11 #
b00100111 $
b00100110 %
#369
b00 #
b00010110 $
b00011000 %
#370
b11 #
b11100010 $
b11100001 %
#371
b00 #
b01010110 $
b01011000 %
#372
b01011001 $
b01011011 %
#373
b11111100 $
b11111110 %
#374
b10 #
b11110001 $
b11110001 %
#375
b01 #
b00011011 $
b00011100 %
#376
b11 #
b11011111 $
b11011110 %
#377
b01 #
b11011011 $
b11011100 %
#378
b11 #
b00000010 $
b00000001 %
#379
b11100111 $
b11100110 %
#380
b01001111 $
b01001110 %
#381
b00 #
b10100010 $
b10100100 %
#382
b01 #
b10001100 $
b10001101 %
#383
b11101010 $
b11101011 %
#384
b10 #
b01001011 $
b01001011 %
#385
b11 #
b00101010 $
b00101001 %
#386
b00 #
b11000011 $
b11000101 %
#387
b10 #
b11110101 $
b11110101 %
#388
b01 #
b10110111 $
b10111000 %
#389
b11 #
b10100101 $
b10100100 %
#390
b00 #
b00011110 $
b00100000 %
#391
b00010100 $
b00010110 %
#392
b01 #
b00000000 $
b00000001 %
#393
b00 #
b00110010 $
b00110100 %
#394
b10 #
b10101100 $
b10101100 %
#395
b01 #
b00001101 $
b00001110 %
#396
b10110001 $
b10110010 %
#397
b00 #
b01101001 $
b01101011 %
#398
b10 #
b10101010 $
b10101010 %
#399
b11 #
b10101000 $
b10100111 %
#400
b00 #
b10100110 $
b10101000 %
#401
b10 #
b11011100 $
b11011100 %
#402
b00 #
b01000111 $
b01001001 %
#403
b10 #
b00011001 $
b00011001 %
#404
b01 #
b00111100 $
b00111101 %
#405
b11 #
b01101110 $
b01101101 %
#406
b01 #
b01101011 $
b01101100 %
#407
b10 #
b01000100 $
b01000100 %
#408
b01 #
b00101101 $
b00101110 %
#409
b11 #
b10000011 $
b10000010 %
#410
b10 #
b00100011 $
b00100011 %
#411
b11 #
b10111110 $
b10111101 %
#412
b01 #
b01111110 $
b01111111 %
#413
b11 #
b00010111 $
b00010110 %
#414
b01 #
b11010111 $
b11011000 %
#415
b11 #
b10000001 $
b10000000 %
#416
b00 #
b11101111 $
b11110001 %
#417
b10110010 $
b10110100 %
#418
b10 #
b00110111 $
b00110111 %
#419
b11 #
b10001110 $
b10001101 %
#420
b00 #
b10011000 $
b10011010 %
#421
b11 #
b00001111 $
b00001110 %
#422
b01 #
b00000001 $
b00000010 %
#423
b11 #
b00100011 $
b00100010 %
#424
b00 #
b00100101 %
#425
b11 #
b01100000 $
b01011111 %
#426
b00 #
b10101100 $
b10101110 %
#427
b10 #
b00000010 $
b00000010 %
#428
b01 #
b10100011 $
b10100100 %
#429
b11101010 $
b11101011 %
#430
b00 #
b11101100 $
b11101110 %
#431
b00101101 $
b00101111 %
#432
b01011010 $
b01011100 %
#433
b01 #
b00000111 $
b00001000 %
#434
b01101010 $
b01101011 %
#435
b10 #
b10000110 $
b10000110 %
#436
b01 #
b10011111 $
b10100000 %
#437
b11 #
b00101011 $
b00101010 %
#438
b00 #
b11100010 $
b11100100 %
#439
b11111011 $
b11111101 %
#440
b10011111 $
b10100001 %
#441
b10 #
b00010000 $
b00010000 %
#442
b10101001 $
b10101001 %
#443
b11010001 $
b11010001 %
#444
b00011110 $
b00011110 %
#445
b00 #
b00100011 $
b00100101 %
#446
b01 #
b10011010 $
b10011011 %
#447
b00 #
b00111100 $
b00111110 %
#448
b01 #
b00110100 $
b00110101 %
#449
b11 #
b00010001 $
b00010000 %
#450
b01 #
b01110011 $
b01110100 %
#451
b00 #
b00010111 $
b00011001 %
#452
b11 #
b00100011 $
b00100010 %
#453
b01 #
b00000010 $
b00000011 %
#454
b00 #
b01001100 $
b01001110 %
#455
b10 #
b00101011 $
b00101011 %
#456
b11 #
b00000001 $
b00000000 %
#457
b01 #
b10110001 $
b10110010 %
#458
b01101100 $
b01101101 %
#459
b10 #
b10011011 $
b10011011 %
#460
b01 #
b01100110 $
b01100111 %
#461
b10 #
b10111001 $
b10111001 %
#462
b00 #
b10111111 $
b11000001 %
#463
b01 #
b10101111 $
b10110000 %
#464
b11 #
b01011101 $
b01011100 %
#465
b01 #
b10011100 $
b10011101 %
#466
b00 #
b11010101 $
b11010111 %
#467
b01110011 $
b01110101 %
#468
b10 #
b00010010 $
b00010010 %
#469
b01 #
b01110000 $
b01110001 %
#470
b11 #
b00100100 $
b00100011 %
#471
b11010111 $
b11010110 %
#472
b00 #
b00001000 $
b00001010 %
#473
b01 #
b01010110 $
b01010111 %
#474
b00 #
b11110111 $
b11111001 %
#475
b01 #
b01110101 $
b01110110 %
#476
b10 #
b10100111 $
b10100111 %
#477
b10010100 $
b10010100 %
#478
b11 #
b00100011 $
b00100010 %
#479
b10 #
b10101101 $
b10101101 %
#480
b11 #
b10010001 $
b10010000 %
#481
b01 #
b00010111 $
b00011000 %
#482
b10 #
b10010010 $
b10010010 %
#483
b00010011 $
b00010011 %
#484
b11 #
b01111010 $
b01111001 %
#485
b00000110 $
b00000101 %
#486
b10111101 $
b10111100 %
#487
b01 #
b11010001 $
b11010010 %
#488
b00010001 $
b00010010 %
#489
b10001101 $
b10001110 %
#490
b11 #
b01111101 $
b01111100 %
#491
b10 #
b00000101 $
b00000101 %
#492
b10111000 $
b10111000 %
#493
b00 #
b01001111 $
b01010001 %
#494
b01111001 $
b01111011 %
#495
b11 #
b11010110 $
b11010101 %
#496
b00 #
b01101000 $
b01101010 %
#497
b01 #
b11011100 $
b11011101 %
#498
b00 #
b10010101 $
b10010111 %
#499
b01 #
b10100001 $
b10100010 %
#500
b11 #
b00101101 $
b00101100 %
#501
b11100010 $
b11100001 %
#502
b10 #
b10110110 $
b10110110 %
#503
b01 #
b10000011 $
b10000100 %
#504
b10101010 $
b10101011 %
#505
b11000100 $
b11000101 %
#506
b00 #
b11100110 $
b11101000 %
#507
b11010111 $
b11011001 %
#508
b10 #
b01010011 $
b01010011 %
#509
b00 #
b01010101 %
#510
b01 #
b00000111 $
b00001000 %
#511
b00 #
b00110011 $
b00110101 %
#512
b01 #
b11011110 $
b11011111 %
#513
b10 #
b10001000 $
b10001000 %
#514
b00 #
b00000000 $
b00000010 %
#515
b11 #
b01000111 $
b01000110 %
#516
b01 #
b10110011 $
b10110100 %
#517
b11101111 $
b11110000 %
#518
b10010110 $
b10010111 %
#519
b10 #
b00000111 $
b00000111 %
#520
b01101011 $
b01101011 %
#521
b01 #
b10000110 $
b10000111 %
#522
b01111101 $
b01111110 %
#523
b00 #
b01011100 $
b01011110 %
#524
b11 #
b10110101 $
b10110100 %
#525
b00 #
b11000111 $
b11001001 %
#526
b10 #
b10001111 $
b10001111 %
#527
b11 #
b00101011 $
b00101010 %
#528
b10010101 $
b10010100 %
#529
b10 #
b11100010 $
b11100010 %
#530
b11 #
b01110110 $
b01110101 %
#531
b01 #
b01100010 $
b01100011 %
#532
b00 #
b00100100 $
b00100110 %
#533
b10 #
b11100110 $
b11100110 %
#534
b11 #
b00101010 $
b00101001 %
#535
b01110011 $
b01110010 %
#536
b10 #
b01001000 $
b01001000 %
#537
b11 #
b11111001 $
b11111000 %
#538
b11010001 $
b11010000 %
#539
b10 #
b00010011 $
b00010011 %
#540
b10101101 $
b10101101 %
#541
b01 #
b11011101 $
b11011110 %
#542
b10110000 $
b10110001 %
#543
b00 #
b01001000 $
b01001010 %
#544
b11 #
b01110000 $
b01101111 %
#545
b00 #
b00110111 $
b00111001 %
#546
b11 #
b10011111 $
b10011110 %
#547
b10000000 $
b01111111 %
#548
b00 #
b11111000 $
b11111010 %
#549
b11 #
b11000110 $
b11000101 %
#550
b00 #
b01001000 $
b01001010 %
#551
b11 #
b10011101 $
b10011100 %
#552
b01 #
b11111110 $
b11111111 %
#553
b10 #
b00110110 $
b00110110 %
#554
b10010101 $
b10010101 %
#555
b00 #
b10000101 $
b10000111 %
#556
b01110110 $
b01111000 %
#557
b11 #
b00100010 $
b00100001 %
#558
b11101010 $
b11101001 %
#559
b01 #
b01100011 $
b01100100 %
#560
b10001011 $
b10001100 %
#561
b11 #
b10011111 $
b10011110 %
#562
b00 #
b01111101 $
b01111111 %
#563
b00011011 $
b00011101 %
#564
b10 #
b01001100 $
b01001100 %
#565
b11110010 $
b11110010 %
#566
b00 #
b00110001 $
b00110011 %
#567
b11 #
b10011110 $
b10011101 %
#568
b00011101 $
b00011100 %
#569
b01 #
b00101100 $
b00101101 %
#570
b00 #
b01000010 $
b01000100 %
#571
b01 #
b11000011 $
b11000100 %
#572
b10 #
b11101011 $
b11101011 %
#573
b00 #
b01001010 $
b01001100 %
#574
b10 #
b10001000 $
b10001000 %
#575
b00 #
b00011011 $
b00011101 %
#576
b11 #
b01100000 $
b01011111 %
#577
b00 #
b10011111 $
b10100001 %
#578
b01 #
b01000110 $
b01000111 %
#579
b01111100 $
b01111101 %
#580
b00 #
b00000100 $
b00000110 %
#581
b11101001 $
b11101011 %
#582
b10 #
b11001011 $
b11001011 %
#583
b00 #
b11000010 $
b11000100 %
#584
b10 #
b00111101 $
b00111101 %
#585
b01 #
b11001100 $
b11001101 %
#586
b11 #
b01000011 $
b01000010 %
#587
b01 #
b11011101 $
b11011110 %
#588
b00 #
b01000000 $
b01000010 %
#589
b10 #
b00010100 $
b00010100 %
#590
b01 #
b00010001 $
b00010010 %
#591
b11 #
b11101111 $
b11101110 %
#592
b10 #
b00101011 $
b00101011 %
#593
b01 #
b10101110 $
b10101111 %
#594
b00 #
b01011101 $
b01011111 %
#595
b11 #
b01100110 $
b01100101 %
#596
b00 #
b11110011 $
b11110101 %
#597
b11 #
b10011100 $
b10011011 %
#598
b01011110 $
b01011101 %
#599
b01 #
b10000010 $
b10000011 %
#600
b10 #
b11000010 $
b11000010 %
#601
b01011000 $
b01011000 %
#602
b01 #
b11100101 $
b11100110 %
#603
b11010110 $
b11010111 %
#604
b11 #
b10010111 $
b10010110 %
#605
b01 #
b01110101 $
b01110110 %
#606
b00 #
b11001101 $
b11001111 %
#607
b01 #
b01101111 $
b01110000 %
#608
b00 #
b10100111 $
b10101001 %
#609
b10 #
b11100011 $
b11100011 %
#610
b11 #
b01111000 $
b01110111 %
#611
b01011111 $
b01011110 %
#612
b01010101 $
b01010100 %
#613
b10 #
b00100010 $
b00100010 %
#614
b01 #
b01011000 $
b01011001 %
#615
b00 #
b11010110 $
b11011000 %
#616
b10 #
b11100110 $
b11100110 %
#617
b11 #
b10110111 $
b10110110 %
#618
b01 #
b11011101 $
b11011110 %
#619
b10 #
b00111000 $
b00111000 %
#620
b01001011 $
b01001011 %
#621
b00 #
b01101100 $
b01101110 %
#622
b10 #
b01011001 $
b01011001 %
#623
b11 #
b01000011 $
b01000010 %
#624
b00 #
b00100100 $
b00100110 %
#625
b11000100 $
b11000110 %
#626
b00101101 $
b00101111 %
#627
b11000011 $
b11000101 %
#628
b10 #
b00011110 $
b00011110 %
#629
b00 #
b01001011 $
b01001101 %
#630
b10001101 $
b10001111 %
#631
b01 #
b01011010 $
b01011011 %
#632
b00 #
b01010001 $
b01010011 %
#633
b01 #
b01001100 $
b01001101 %
#634
b00 #
b00100110 $
b00101000 %
#635
b11 #
b10111011 $
b10111010 %
#636
b10010111 $
b10010110 %
#637
b01 #
b10011110 $
b10011111 %
#638
b10011001 $
b10011010 %
#639
b11 #
b10101000 $
b10100111 %
#640
b00 #
b10000010 $
b10000100 %
#641
b11 #
b10101011 $
b10101010 %
#642
b00 #
b00010011 $
b00010101 %
#643
b11111011 $
b11111101 %
#644
b10000001 $
b10000011 %
#645
b01100010 $
b01100100 %
#646
b10101000 $
b10101010 %
#647
b11 #
b00101010 $
b00101001 %
#648
b01 #
b00101001 $
b00101010 %
#649
b10110111 $
b10111000 %
#650
b11101101 $
b11101110 %
#651
b10 #
b01111001 $
b01111001 %
#652
b01 #
b01011101 $
b01011110 %
#653
b00 #
b01010010 $
b01010100 %
#654
b10 #
b10110010 $
b10110010 %
#655
b01 #
b11001111 $
b11010000 %
#656
b00 #
b10110100 $
b10110110 %
#657
b10 #
b00000010 $
b00000010 %
#658
b11 #
b10101110 $
b10101101 %
#659
b00010000 $
b00001111 %
#660
b00 #
b01111010 $
b01111100 %
#661
b11 #
b00101010 $
b00101001 %
#662
b00 #
b00000111 $
b00001001 %
#663
b01001100 $
b01001110 %
#664
b10 #
b01111000 $
b01111000 %
#665
b00 #
b11100111 $
b11101001 %
#666
b01 #
b10101101 $
b10101110 %
#667
b11 #
b00100011 $
b00100010 %
#668
b00 #
b11110101 $
b11110111 %
#669
b10 #
b01110101 $
b01110101 %
#670
b10011110 $
b10011110 %
#671
b11 #
b01011001 $
b01011000 %
#672
b00 #
b00101010 $
b00101100 %
#673
b11 #
b10010001 $
b10010000 %
#674
b00111110 $
b00111101 %
#675
b01101111 $
b01101110 %
#676
b01111000 $
b01110111 %
#677
b01 #
b10100111 $
b10101000 %
#678
b10 #
b11111011 $
b11111011 %
#679
b01 #
b00011100 $
b00011101 %
#680
b11 #
b01011111 $
b01011110 %
#681
b10 #
b11110101 $
b11110101 %
#682
b01 #
b10011110 $
b10011111 %
#683
b11 #
b10100100 $
b10100011 %
#684
b10 #
b11001001 $
b11001001 %
#685
b11 #
b01100111 $
b01100110 %
#686
b10110000 $
b10101111 %
#687
b01 #
b11010001 $
b11010010 %
#688
b11 #
b01000001 $
b01000000 %
#689
b01 #
b10111011 $
b10111100 %
#690
b10 #
b00000011 $
b00000011 %
#691
b10111110 $
b10111110 %
#692
b01 #
b01001010 $
b01001011 %
#693
b00 #
b01101000 $
b01101010 %
#694
b01 #
b11100110 $
b11100111 %
#695
b10 #
b01000011 $
b01000011 %
#696
b01 #
b01111111 $
b10000000 %
#697
b11 #
b11100001 $
b11100000 %
#698
b10 #
b01101000 $
b01101000 %
#699
b10000100 $
b10000100 %
#700
b01 #
b10000001 $
b10000010 %
#701
b11 #
b11100010 $
b11100001 %
#702
b01 #
b11001111 $
b11010000 %
#703
b00 #
b01101111 $
b01110001 %
#704
b11 #
b00110011 $
b00110010 %
#705
b10111001 $
b10111000 %
#706
b10 #
b00000111 $
b00000111 %
#707
b11 #
b10111100 $
b10111011 %
#708
b01 #
b11000001 $
b11000010 %
#709
b00 #
b10001111 $
b10010001 %
#710
b10101101 $
b10101111 %
