src/tests/resources/operation/hw/instance/trace_vtor.vcd
$version Generated by VerilatedVcd $end
$timescale 1ps $end
 $scope module Foo $end
  $var wire 8 # io_a [7:0] $end
  $var wire 8 $ res_out2 [7:0] $end
  $var wire 8 % res_out1 [7:0] $end
  $scope module Foo $end
   $var wire 8 # io_a [7:0] $end
   $var wire 8 $ res_out2 [7:0] $end
   $var wire 8 % res_out1 [7:0] $end
   $scope module i0 $end
    $var wire 8 # io_a [7:0] $end
    $var wire 8 $ res2 [7:0] $end
    $scope module i1 $end
     $var wire 8 & io_a [7:0] $end
     $var wire 8 $ res [7:0] $end
    $upscope $end
    $scope module i3 $end
     $var wire 8 # io_a [7:0] $end
     $var wire 8 & res [7:0] $end
    $upscope $end
   $upscope $end
   $scope module i2 $end
    $var wire 8 $ io_a [7:0] $end
    $var wire 8 % res [7:0] $end
   $upscope $end
  $upscope $end
 $upscope $end
$enddefinitions $end


#0
b10000100 #
b10000110 $
b10000111 %
b10000101 &
#1
#2
b01001110 #
b01010000 $
b01010001 %
b01001111 &
#3
b10011100 #
b10011110 $
b10011111 %
b10011101 &
#4
b00011010 #
b00011100 $
b00011101 %
b00011011 &
#5
b01110010 #
b01110100 $
b01110101 %
b01110011 &
#6
b01101000 #
b01101010 $
b01101011 %
b01101001 &
#7
b01101110 #
b01110000 $
b01110001 %
b01101111 &
#8
b10100000 #
b10100010 $
b10100011 %
b10100001 &
#9
b10001011 #
b10001101 $
b10001110 %
b10001100 &
#10
b01000001 #
b01000011 $
b01000100 %
b01000010 &
#11
b00111101 #
b00111111 $
b01000000 %
b00111110 &
#12
b10001011 #
b10001101 $
b10001110 %
b10001100 &
#13
b10110101 #
b10110111 $
b10111000 %
b10110110 &
#14
b11010110 #
b11011000 $
b11011001 %
b11010111 &
#15
b00101000 #
b00101010 $
b00101011 %
b00101001 &
#16
b11100100 #
b11100110 $
b11100111 %
b11100101 &
#17
b11111011 #
b11111101 $
b11111110 %
b11111100 &
#18
b00010110 #
b00011000 $
b00011001 %
b00010111 &
#19
b00010111 #
b00011001 $
b00011010 %
b00011000 &
#20
b10100101 #
b10100111 $
b10101000 %
b10100110 &
#21
b11101111 #
b11110001 $
b11110010 %
b11110000 &
#22
b00101010 #
b00101100 $
b00101101 %
b00101011 &
#23
b10100001 #
b10100011 $
b10100100 %
b10100010 &
#24
b11100000 #
b11100010 $
b11100011 %
b11100001 &
#25
b11100100 #
b11100110 $
b11100111 %
b11100101 &
#26
b11000100 #
b11000110 $
b11000111 %
b11000101 &
#27
b01011110 #
b01100000 $
b01100001 %
b01011111 &
#28
b11101110 #
b11110000 $
b11110001 %
b11101111 &
#29
b01100011 #
b01100101 $
b01100110 %
b01100100 &
#30
b00101100 #
b00101110 $
b00101111 %
b00101101 &
#31
b00000101 #
b00000111 $
b00001000 %
b00000110 &
#32
b01100011 #
b01100101 $
b01100110 %
b01100100 &
#33
b11100110 #
b11101000 $
b11101001 %
b11100111 &
#34
b10000101 #
b10000111 $
b10001000 %
b10000110 &
#35
b01111000 #
b01111010 $
b01111011 %
b01111001 &
#36
b01001010 #
b01001100 $
b01001101 %
b01001011 &
#37
b00111100 #
b00111110 $
b00111111 %
b00111101 &
#38
b01101111 #
b01110001 $
b01110010 %
b01110000 &
#39
b10101010 #
b10101100 $
b10101101 %
b10101011 &
#40
b01101110 #
b01110000 $
b01110001 %
b01101111 &
#41
b01101111 #
b01110001 $
b01110010 %
b01110000 &
#42
b11110101 #
b11110111 $
b11111000 %
b11110110 &
#43
b10001001 #
b10001011 $
b10001100 %
b10001010 &
#44
b11101101 #
b11101111 $
b11110000 %
b11101110 &
#45
b11010111 #
b11011001 $
b11011010 %
b11011000 &
#46
b00101011 #
b00101101 $
b00101110 %
b00101100 &
#47
b01001011 #
b01001101 $
b01001110 %
b01001100 &
#48
b11010011 #
b11010101 $
b11010110 %
b11010100 &
#49
b00011011 #
b00011101 $
b00011110 %
b00011100 &
#50
b10000100 #
b10000110 $
b10000111 %
b10000101 &
#51
b10111100 #
b10111110 $
b10111111 %
b10111101 &
#52
b00110011 #
b00110101 $
b00110110 %
b00110100 &
#53
b01010011 #
b01010101 $
b01010110 %
b01010100 &
#54
b00101110 #
b00110000 $
b00110001 %
b00101111 &
#55
b00011110 #
b00100000 $
b00100001 %
b00011111 &
#56
b01010010 #
b01010100 $
b01010101 %
b01010011 &
#57
b11110111 #
b11111001 $
b11111010 %
b11111000 &
#58
b10101011 #
b10101101 $
b10101110 %
b10101100 &
#59
b01011010 #
b01011100 $
b01011101 %
b01011011 &
#60
b01101000 #
b01101010 $
b01101011 %
b01101001 &
#61
b11101001 #
b11101011 $
b11101100 %
b11101010 &
#62
b01000101 #
b01000111 $
b01001000 %
b01000110 &
#63
b01101110 #
b01110000 $
b01110001 %
b01101111 &
#64
b11111010 #
b11111100 $
b11111101 %
b11111011 &
#65
b11111001 #
b11111011 $
b11111100 %
b11111010 &
#66
b11010001 #
b11010011 $
b11010100 %
b11010010 &
#67
b11011110 #
b11100000 $
b11100001 %
b11011111 &
#68
b00011010 #
b00011100 $
b00011101 %
b00011011 &
#69
b00100011 #
b00100101 $
b00100110 %
b00100100 &
#70
b01110101 #
b01110111 $
b01111000 %
b01110110 &
#71
b01101111 #
b01110001 $
b01110010 %
b01110000 &
#72
b00111001 #
b00111011 $
b00111100 %
b00111010 &
#73
b00111100 #
b00111110 $
b00111111 %
b00111101 &
#74
b11010101 #
b11010111 $
b11011000 %
b11010110 &
#75
b00000101 #
b00000111 $
b00001000 %
b00000110 &
#76
b00001000 #
b00001010 $
b00001011 %
b00001001 &
#77
b10100000 #
b10100010 $
b10100011 %
b10100001 &
#78
b01100110 #
b01101000 $
b01101001 %
b01100111 &
#79
b10110100 #
b10110110 $
b10110111 %
b10110101 &
#80
b11011111 #
b11100001 $
b11100010 %
b11100000 &
#81
b00011101 #
b00011111 $
b00100000 %
b00011110 &
#82
b11110011 #
b11110101 $
b11110110 %
b11110100 &
#83
b10000011 #
b10000101 $
b10000110 %
b10000100 &
#84
b00001010 #
b00001100 $
b00001101 %
b00001011 &
#85
b10101100 #
b10101110 $
b10101111 %
b10101101 &
#86
b00110101 #
b00110111 $
b00111000 %
b00110110 &
#87
b01110111 #
b01111001 $
b01111010 %
b01111000 &
#88
b01001101 #
b01001111 $
b01010000 %
b01001110 &
#89
b00011100 #
b00011110 $
b00011111 %
b00011101 &
#90
b10111111 #
b11000001 $
b11000010 %
b11000000 &
#91
b01110000 #
b01110010 $
b01110011 %
b01110001 &
#92
b01111100 #
b01111110 $
b01111111 %
b01111101 &
#93
b01111110 #
b10000000 $
b10000001 %
b01111111 &
#94
b00111111 #
b01000001 $
b01000010 %
b01000000 &
#95
b11010100 #
b11010110 $
b11010111 %
b11010101 &
#96
b00011001 #
b00011011 $
b00011100 %
b00011010 &
#97
b01010001 #
b01010011 $
b01010100 %
b01010010 &
#98
b01011110 #
b01100000 $
b01100001 %
b01011111 &
#99
b10000111 #
b10001001 $
b10001010 %
b10001000 &
#100
b10100110 #
b10101000 $
b10101001 %
b10100111 &
#101
b11010101 #
b11010111 $
b11011000 %
b11010110 &
#102
b11100011 #
b11100101 $
b11100110 %
b11100100 &
#103
b01101100 #
b01101110 $
b01101111 %
b01101101 &
#104
b00101101 #
b00101111 $
b00110000 %
b00101110 &
#105
b11110011 #
b11110101 $
b11110110 %
b11110100 &
#106
b01100001 #
b01100011 $
b01100100 %
b01100010 &
#107
b11101000 #
b11101010 $
b11101011 %
b11101001 &
#108
b01001110 #
b01010000 $
b01010001 %
b01001111 &
#109
b00110110 #
b00111000 $
b00111001 %
b00110111 &
#110
b01111100 #
b01111110 $
b01111111 %
b01111101 &
#111
b11101011 #
b11101101 $
b11101110 %
b11101100 &
#112
b10100010 #
b10100100 $
b10100101 %
b10100011 &
#113
b01100011 #
b01100101 $
b01100110 %
b01100100 &
#114
b10100110 #
b10101000 $
b10101001 %
b10100111 &
#115
b10000001 #
b10000011 $
b10000100 %
b10000010 &
#116
b10110101 #
b10110111 $
b10111000 %
b10110110 &
#117
b11111001 #
b11111011 $
b11111100 %
b11111010 &
#118
b00011101 #
b00011111 $
b00100000 %
b00011110 &
#119
b11001000 #
b11001010 $
b11001011 %
b11001001 &
#120
b00101111 #
b00110001 $
b00110010 %
b00110000 &
#121
b01101110 #
b01110000 $
b01110001 %
b01101111 &
#122
b11011000 #
b11011010 $
b11011011 %
b11011001 &
#123
b00011001 #
b00011011 $
b00011100 %
b00011010 &
#124
b01001110 #
b01010000 $
b01010001 %
b01001111 &
#125
b01011010 #
b01011100 $
b01011101 %
b01011011 &
#126
b10010010 #
b10010100 $
b10010101 %
b10010011 &
#127
b11111101 #
b11111111 $
b00000000 %
b11111110 &
#128
b00011100 #
b00011110 $
b00011111 %
b00011101 &
#129
b00101110 #
b00110000 $
b00110001 %
b00101111 &
#130
b00111011 #
b00111101 $
b00111110 %
b00111100 &
#131
b01100010 #
b01100100 $
b01100101 %
b01100011 &
#132
b11110010 #
b11110100 $
b11110101 %
b11110011 &
#133
b00010001 #
b00010011 $
b00010100 %
b00010010 &
#134
b11011111 #
b11100001 $
b11100010 %
b11100000 &
#135
b11010101 #
b11010111 $
b11011000 %
b11010110 &
#136
b10001010 #
b10001100 $
b10001101 %
b10001011 &
#137
b00000001 #
b00000011 $
b00000100 %
b00000010 &
#138
b01001011 #
b01001101 $
b01001110 %
b01001100 &
#139
b10110110 #
b10111000 $
b10111001 %
b10110111 &
#140
b11001101 #
b11001111 $
b11010000 %
b11001110 &
#141
b10111100 #
b10111110 $
b10111111 %
b10111101 &
#142
b01100111 #
b01101001 $
b01101010 %
b01101000 &
#143
b00010011 #
b00010101 $
b00010110 %
b00010100 &
#144
b10111110 #
b11000000 $
b11000001 %
b10111111 &
#145
b00111000 #
b00111010 $
b00111011 %
b00111001 &
#146
b01010001 #
b01010011 $
b01010100 %
b01010010 &
#147
b11100111 #
b11101001 $
b11101010 %
b11101000 &
#148
b01001011 #
b01001101 $
b01001110 %
b01001100 &
#149
b01111011 #
b01111101 $
b01111110 %
b01111100 &
#150
b10010101 #
b10010111 $
b10011000 %
b10010110 &
#151
b01101011 #
b01101101 $
b01101110 %
b01101100 &
#152
b01000001 #
b01000011 $
b01000100 %
b01000010 &
#153
b01000111 #
b01001001 $
b01001010 %
b01001000 &
#154
b00110011 #
b00110101 $
b00110110 %
b00110100 &
#155
b01000101 #
b01000111 $
b01001000 %
b01000110 &
#156
b00100100 #
b00100110 $
b00100111 %
b00100101 &
#157
b11110001 #
b11110011 $
b11110100 %
b11110010 &
#158
b10110101 #
b10110111 $
b10111000 %
b10110110 &
#159
b00000000 #
b00000010 $
b00000011 %
b00000001 &
#160
b10101001 #
b10101011 $
b10101100 %
b10101010 &
#161
b01001111 #
b01010001 $
b01010010 %
b01010000 &
#162
b11001110 #
b11010000 $
b11010001 %
b11001111 &
#163
b11011100 #
b11011110 $
b11011111 %
b11011101 &
#164
b00100100 #
b00100110 $
b00100111 %
b00100101 &
#165
b01111100 #
b01111110 $
b01111111 %
b01111101 &
#166
b10100101 #
b10100111 $
b10101000 %
b10100110 &
#167
b11110001 #
b11110011 $
b11110100 %
b11110010 &
#168
b00111001 #
b00111011 $
b00111100 %
b00111010 &
#169
b00000000 #
b00000010 $
b00000011 %
b00000001 &
#170
b00001000 #
b00001010 $
b00001011 %
b00001001 &
#171
b00101100 #
b00101110 $
b00101111 %
b00101101 &
#172
b11100011 #
b11100101 $
b11100110 %
b11100100 &
#173
b10100111 #
b10101001 $
b10101010 %
b10101000 &
#174
b01010110 #
b01011000 $
b01011001 %
b01010111 &
#175
b11010110 #
b11011000 $
b11011001 %
b11010111 &
#176
b00101110 #
b00110000 $
b00110001 %
b00101111 &
#177
b11110000 #
b11110010 $
b11110011 %
b11110001 &
#178
b10010001 #
b10010011 $
b10010100 %
b10010010 &
#179
b01011001 #
b01011011 $
b01011100 %
b01011010 &
#180
b11111100 #
b11111110 $
b11111111 %
b11111101 &
#181
b01001111 #
b01010001 $
b01010010 %
b01010000 &
#182
b11010011 #
b11010101 $
b11010110 %
b11010100 &
#183
b01111111 #
b10000001 $
b10000010 %
b10000000 &
#184
b10001101 #
b10001111 $
b10010000 %
b10001110 &
#185
b00111010 #
b00111100 $
b00111101 %
b00111011 &
#186
b10010010 #
b10010100 $
b10010101 %
b10010011 &
#187
b10011011 #
b10011101 $
b10011110 %
b10011100 &
#188
b00011001 #
b00011011 $
b00011100 %
b00011010 &
#189
b01101011 #
b01101101 $
b01101110 %
b01101100 &
#190
b00010001 #
b00010011 $
b00010100 %
b00010010 &
#191
b10100101 #
b10100111 $
b10101000 %
b10100110 &
#192
b11111100 #
b11111110 $
b11111111 %
b11111101 &
#193
b00110000 #
b00110010 $
b00110011 %
b00110001 &
#194
b01100101 #
b01100111 $
b01101000 %
b01100110 &
#195
b00000000 #
b00000010 $
b00000011 %
b00000001 &
#196
b00011110 #
b00100000 $
b00100001 %
b00011111 &
#197
b10011110 #
b10100000 $
b10100001 %
b10011111 &
#198
b01110000 #
b01110010 $
b01110011 %
b01110001 &
#199
b00100111 #
b00101001 $
b00101010 %
b00101000 &
#200
b00010001 #
b00010011 $
b00010100 %
b00010010 &
#201
b11110101 #
b11110111 $
b11111000 %
b11110110 &
#202
b00010100 #
b00010110 $
b00010111 %
b00010101 &
#203
b11011000 #
b11011010 $
b11011011 %
b11011001 &
#204
b10101100 #
b10101110 $
b10101111 %
b10101101 &
#205
b00000100 #
b00000110 $
b00000111 %
b00000101 &
#206
b10001110 #
b10010000 $
b10010001 %
b10001111 &
#207
b11010100 #
b11010110 $
b11010111 %
b11010101 &
#208
b10011011 #
b10011101 $
b10011110 %
b10011100 &
#209
b11101101 #
b11101111 $
b11110000 %
b11101110 &
#210
b00001010 #
b00001100 $
b00001101 %
b00001011 &
#211
b01111101 #
b01111111 $
b10000000 %
b01111110 &
#212
b00010111 #
b00011001 $
b00011010 %
b00011000 &
#213
b10101001 #
b10101011 $
b10101100 %
b10101010 &
#214
b10111100 #
b10111110 $
b10111111 %
b10111101 &
#215
b10101101 #
b10101111 $
b10110000 %
b10101110 &
#216
b01001001 #
b01001011 $
b01001100 %
b01001010 &
#217
b10110000 #
b10110010 $
b10110011 %
b10110001 &
#218
b00010100 #
b00010110 $
b00010111 %
b00010101 &
#219
b10100010 #
b10100100 $
b10100101 %
b10100011 &
#220
b11011001 #
b11011011 $
b11011100 %
b11011010 &
#221
b01000010 #
b01000100 $
b01000101 %
b01000011 &
#222
b01000000 #
b01000010 $
b01000011 %
b01000001 &
#223
b10010010 #
b10010100 $
b10010101 %
b10010011 &
#224
b10111011 #
b10111101 $
b10111110 %
b10111100 &
#225
b00000110 #
b00001000 $
b00001001 %
b00000111 &
#226
b00000010 #
b00000100 $
b00000101 %
b00000011 &
#227
b10111110 #
b11000000 $
b11000001 %
b10111111 &
#228
b11110011 #
b11110101 $
b11110110 %
b11110100 &
#229
b00101010 #
b00101100 $
b00101101 %
b00101011 &
#230
b11011011 #
b11011101 $
b11011110 %
b11011100 &
#231
b10100001 #
b10100011 $
b10100100 %
b10100010 &
#232
b00010110 #
b00011000 $
b00011001 %
b00010111 &
#233
b01100010 #
b01100100 $
b01100101 %
b01100011 &
#234
b10010010 #
b10010100 $
b10010101 %
b10010011 &
#235
b11110111 #
b11111001 $
b11111010 %
b11111000 &
#236
b01011001 #
b01011011 $
b01011100 %
b01011010 &
#237
b01011010 #
b01011100 $
b01011101 %
b01011011 &
#238
b01111110 #
b10000000 $
b10000001 %
b01111111 &
#239
b10110011 #
b10110101 $
b10110110 %
b10110100 &
#240
b01000110 #
b01001000 $
b01001001 %
b01000111 &
#241
b01000111 #
b01001001 $
b01001010 %
b01001000 &
#242
b10111100 #
b10111110 $
b10111111 %
b10111101 &
#243
b01010000 #
b01010010 $
b01010011 %
b01010001 &
#244
b11100101 #
b11100111 $
b11101000 %
b11100110 &
#245
b01101101 #
b01101111 $
b01110000 %
b01101110 &
#246
b11101101 #
b11101111 $
b11110000 %
b11101110 &
#247
b10101001 #
b10101011 $
b10101100 %
b10101010 &
#248
b11001000 #
b11001010 $
b11001011 %
b11001001 &
#249
b11101001 #
b11101011 $
b11101100 %
b11101010 &
#250
b01111001 #
b01111011 $
b01111100 %
b01111010 &
#251
b01111010 #
b01111100 $
b01111101 %
b01111011 &
#252
b10011100 #
b10011110 $
b10011111 %
b10011101 &
#253
b10111000 #
b10111010 $
b10111011 %
b10111001 &
#254
b11010001 #
b11010011 $
b11010100 %
b11010010 &
#255
b01110000 #
b01110010 $
b01110011 %
b01110001 &
#256
b11010110 #
b11011000 $
b11011001 %
b11010111 &
#257
b01110111 #
b01111001 $
b01111010 %
b01111000 &
#258
b01110001 #
b01110011 $
b01110100 %
b01110010 &
#259
b00000111 #
b00001001 $
b00001010 %
b00001000 &
#260
b11100010 #
b11100100 $
b11100101 %
b11100011 &
#261
b10000111 #
b10001001 $
b10001010 %
b10001000 &
#262
b10110100 #
b10110110 $
b10110111 %
b10110101 &
#263
b10000011 #
b10000101 $
b10000110 %
b10000100 &
#264
b11111001 #
b11111011 $
b11111100 %
b11111010 &
#265
b10110011 #
b10110101 $
b10110110 %
b10110100 &
#266
b01011011 #
b01011101 $
b01011110 %
b01011100 &
#267
b01111000 #
b01111010 $
b01111011 %
b01111001 &
#268
b00000000 #
b00000010 $
b00000011 %
b00000001 &
#269
b11100101 #
b11100111 $
b11101000 %
b11100110 &
#270
b10000101 #
b10000111 $
b10001000 %
b10000110 &
#271
b11000100 #
b11000110 $
b11000111 %
b11000101 &
#272
b10001111 #
b10010001 $
b10010010 %
b10010000 &
#273
b00000100 #
b00000110 $
b00000111 %
b00000101 &
#274
b10101101 #
b10101111 $
b10110000 %
b10101110 &
#275
b01100100 #
b01100110 $
b01100111 %
b01100101 &
#276
b11000110 #
b11001000 $
b11001001 %
b11000111 &
#277
b01111000 #
b01111010 $
b01111011 %
b01111001 &
#278
b11010000 #
b11010010 $
b11010011 %
b11010001 &
#279
b10011010 #
b10011100 $
b10011101 %
b10011011 &
#280
b01000001 #
b01000011 $
b01000100 %
b01000010 &
#281
b11100110 #
b11101000 $
b11101001 %
b11100111 &
#282
b00100000 #
b00100010 $
b00100011 %
b00100001 &
#283
b00001111 #
b00010001 $
b00010010 %
b00010000 &
#284
b11100101 #
b11100111 $
b11101000 %
b11100110 &
#285
b10101000 #
b10101010 $
b10101011 %
b10101001 &
#286
b10110111 #
b10111001 $
b10111010 %
b10111000 &
#287
b11111100 #
b11111110 $
b11111111 %
b11111101 &
#288
b11111001 #
b11111011 $
b11111100 %
b11111010 &
#289
b01011100 #
b01011110 $
b01011111 %
b01011101 &
#290
b10010001 #
b10010011 $
b10010100 %
b10010010 &
#291
b00011000 #
b00011010 $
b00011011 %
b00011001 &
#292
b01110010 #
b01110100 $
b01110101 %
b01110011 &
#293
b10111110 #
b11000000 $
b11000001 %
b10111111 &
#294
b10000011 #
b10000101 $
b10000110 %
b10000100 &
#295
b11100111 #
b11101001 $
b11101010 %
b11101000 &
#296
b01100100 #
b01100110 $
b01100111 %
b01100101 &
#297
b11011110 #
b11100000 $
b11100001 %
b11011111 &
#298
b11010100 #
b11010110 $
b11010111 %
b11010101 &
#299
b01001100 #
b01001110 $
b01001111 %
b01001101 &
#300
b10010001 #
b10010011 $
b10010100 %
b10010010 &
#301
b01010010 #
b01010100 $
b01010101 %
b01010011 &
#302
b00110010 #
b00110100 $
b00110101 %
b00110011 &
#303
b01010101 #
b01010111 $
b01011000 %
b01010110 &
#304
b00011011 #
b00011101 $
b00011110 %
b00011100 &
#305
b10000100 #
b10000110 $
b10000111 %
b10000101 &
#306
b10000101 #
b10000111 $
b10001000 %
b10000110 &
#307
b00110010 #
b00110100 $
b00110101 %
b00110011 &
#308
b00110001 #
b00110011 $
b00110100 %
b00110010 &
#309
b11010101 #
b11010111 $
b11011000 %
b11010110 &
#310
b00001010 #
b00001100 $
b00001101 %
b00001011 &
#311
b11000001 #
b11000011 $
b11000100 %
b11000010 &
#312
b01110111 #
b01111001 $
b01111010 %
b01111000 &
#313
b01100100 #
b01100110 $
b01100111 %
b01100101 &
#314
b10111100 #
b10111110 $
b10111111 %
b10111101 &
#315
b11010001 #
b11010011 $
b11010100 %
b11010010 &
#316
b10111001 #
b10111011 $
b10111100 %
b10111010 &
#317
b10101011 #
b10101101 $
b10101110 %
b10101100 &
#318
b11111000 #
b11111010 $
b11111011 %
b11111001 &
#319
b10101101 #
b10101111 $
b10110000 %
b10101110 &
#320
b01010011 #
b01010101 $
b01010110 %
b01010100 &
#321
b00111010 #
b00111100 $
b00111101 %
b00111011 &
#322
b10101011 #
b10101101 $
b10101110 %
b10101100 &
#323
b00011100 #
b00011110 $
b00011111 %
b00011101 &
#324
b10111010 #
b10111100 $
b10111101 %
b10111011 &
#325
b10010001 #
b10010011 $
b10010100 %
b10010010 &
#326
b10100010 #
b10100100 $
b10100101 %
b10100011 &
#327
b11000001 #
b11000011 $
b11000100 %
b11000010 &
#328
b00100011 #
b00100101 $
b00100110 %
b00100100 &
#329
b11011100 #
b11011110 $
b11011111 %
b11011101 &
#330
b11110000 #
b11110010 $
b11110011 %
b11110001 &
#331
b10010111 #
b10011001 $
b10011010 %
b10011000 &
#332
b01100110 #
b01101000 $
b01101001 %
b01100111 &
#333
b10110000 #
b10110010 $
b10110011 %
b10110001 &
#334
b11001101 #
b11001111 $
b11010000 %
b11001110 &
#335
b11111100 #
b11111110 $
b11111111 %
b11111101 &
#336
b11011000 #
b11011010 $
b11011011 %
b11011001 &
#337
b11000101 #
b11000111 $
b11001000 %
b11000110 &
#338
b00010010 #
b00010100 $
b00010101 %
b00010011 &
#339
b00100111 #
b00101001 $
b00101010 %
b00101000 &
#340
b00111101 #
b00111111 $
b01000000 %
b00111110 &
#341
b11110000 #
b11110010 $
b11110011 %
b11110001 &
#342
b01110110 #
b01111000 $
b01111001 %
b01110111 &
#343
b11111100 #
b11111110 $
b11111111 %
b11111101 &
#344
b10101110 #
b10110000 $
b10110001 %
b10101111 &
#345
b01001111 #
b01010001 $
b01010010 %
b01010000 &
#346
b01000011 #
b01000101 $
b01000110 %
b01000100 &
#347
b00101000 #
b00101010 $
b00101011 %
b00101001 &
#348
b10011101 #
b10011111 $
b10100000 %
b10011110 &
#349
b11100010 #
b11100100 $
b11100101 %
b11100011 &
#350
b10000110 #
b10001000 $
b10001001 %
b10000111 &
#351
#352
b01101110 #
b01110000 $
b01110001 %
b01101111 &
#353
b00010111 #
b00011001 $
b00011010 %
b00011000 &
#354
b10110110 #
b10111000 $
b10111001 %
b10110111 &
#355
b11111101 #
b11111111 $
b00000000 %
b11111110 &
#356
b01001001 #
b01001011 $
b01001100 %
b01001010 &
#357
b11110100 #
b11110110 $
b11110111 %
b11110101 &
#358
b00111100 #
b00111110 $
b00111111 %
b00111101 &
#359
b11011000 #
b11011010 $
b11011011 %
b11011001 &
#360
b01110010 #
b01110100 $
b01110101 %
b01110011 &
#361
b10100100 #
b10100110 $
b10100111 %
b10100101 &
#362
b10001110 #
b10010000 $
b10010001 %
b10001111 &
#363
b11110100 #
b11110110 $
b11110111 %
b11110101 &
#364
b11110000 #
b11110010 $
b11110011 %
b11110001 &
#365
b00110011 #
b00110101 $
b00110110 %
b00110100 &
#366
b10111001 #
b10111011 $
b10111100 %
b10111010 &
#367
b10001101 #
b10001111 $
b10010000 %
b10001110 &
#368
b10011000 #
b10011010 $
b10011011 %
b10011001 &
#369
b00111100 #
b00111110 $
b00111111 %
b00111101 &
#370
b01001100 #
b01001110 $
b01001111 %
b01001101 &
#371
b00011010 #
b00011100 $
b00011101 %
b00011011 &
#372
b00101001 #
b00101011 $
b00101100 %
b00101010 &
#373
b00111011 #
b00111101 $
b00111110 %
b00111100 &
#374
b00011001 #
b00011011 $
b00011100 %
b00011010 &
#375
b10001011 #
b10001101 $
b10001110 %
b10001100 &
#376
b00111011 #
b00111101 $
b00111110 %
b00111100 &
#377
b00100111 #
b00101001 $
b00101010 %
b00101000 &
#378
b00100000 #
b00100010 $
b00100011 %
b00100001 &
#379
b00000111 #
b00001001 $
b00001010 %
b00001000 &
#380
b10001010 #
b10001100 $
b10001101 %
b10001011 &
#381
b00010111 #
b00011001 $
b00011010 %
b00011000 &
#382
b00011101 #
b00011111 $
b00100000 %
b00011110 &
#383
b10101000 #
b10101010 $
b10101011 %
b10101001 &
#384
b10010000 #
b10010010 $
b10010011 %
b10010001 &
#385
b10000100 #
b10000110 $
b10000111 %
b10000101 &
#386
b10000010 #
b10000100 $
b10000101 %
b10000011 &
#387
b11100110 #
b11101000 $
b11101001 %
b11100111 &
#388
b01111101 #
b01111111 $
b10000000 %
b01111110 &
#389
b00100110 #
b00101000 $
b00101001 %
b00100111 &
#390
b01011001 #
b01011011 $
b01011100 %
b01011010 &
#391
b01000101 #
b01000111 $
b01001000 %
b01000110 &
#392
b01000000 #
b01000010 $
b01000011 %
b01000001 &
#393
b11000001 #
b11000011 $
b11000100 %
b11000010 &
#394
b01110111 #
b01111001 $
b01111010 %
b01111000 &
#395
b11010101 #
b11010111 $
b11011000 %
b11010110 &
#396
b00101000 #
b00101010 $
b00101011 %
b00101001 &
#397
b10101110 #
b10110000 $
b10110001 %
b10101111 &
#398
b10011100 #
b10011110 $
b10011111 %
b10011101 &
#399
b01010000 #
b01010010 $
b01010011 %
b01010001 &
#400
b11111110 #
b00000000 $
b00000001 %
b11111111 &
#401
b00110010 #
b00110100 $
b00110101 %
b00110011 &
#402
b11110000 #
b11110010 $
b11110011 %
b11110001 &
#403
b01101110 #
b01110000 $
b01110001 %
b01101111 &
#404
b11110101 #
b11110111 $
b11111000 %
b11110110 &
#405
b01110101 #
b01110111 $
b01111000 %
b01110110 &
#406
b11101110 #
b11110000 $
b11110001 %
b11101111 &
#407
b00101010 #
b00101100 $
b00101101 %
b00101011 &
#408
b11100101 #
b11100111 $
b11101000 %
b11100110 &
#409
b10100101 #
b10100111 $
b10101000 %
b10100110 &
#410
b11111101 #
b11111111 $
b00000000 %
b11111110 &
#411
b00101100 #
b00101110 $
b00101111 %
b00101101 &
#412
b00100110 #
b00101000 $
b00101001 %
b00100111 &
#413
b10000011 #
b10000101 $
b10000110 %
b10000100 &
#414
b01011011 #
b01011101 $
b01011110 %
b01011100 &
#415
b00101101 #
b00101111 $
b00110000 %
b00101110 &
#416
b00101110 #
b00110000 $
b00110001 %
b00101111 &
#417
b00011001 #
b00011011 $
b00011100 %
b00011010 &
#418
b10010011 #
b10010101 $
b10010110 %
b10010100 &
#419
b01111010 #
b01111100 $
b01111101 %
b01111011 &
#420
b11101010 #
b11101100 $
b11101101 %
b11101011 &
#421
b11000111 #
b11001001 $
b11001010 %
b11001000 &
#422
b01100110 #
b01101000 $
b01101001 %
b01100111 &
#423
b01000000 #
b01000010 $
b01000011 %
b01000001 &
#424
b10010011 #
b10010101 $
b10010110 %
b10010100 &
#425
b11111101 #
b11111111 $
b00000000 %
b11111110 &
#426
b10101100 #
b10101110 $
b10101111 %
b10101101 &
#427
b11000111 #
b11001001 $
b11001010 %
b11001000 &
#428
b10001011 #
b10001101 $
b10001110 %
b10001100 &
#429
b00010001 #
b00010011 $
b00010100 %
b00010010 &
#430
b10011001 #
b10011011 $
b10011100 %
b10011010 &
#431
b00100000 #
b00100010 $
b00100011 %
b00100001 &
#432
b10111001 #
b10111011 $
b10111100 %
b10111010 &
#433
b10011000 #
b10011010 $
b10011011 %
b10011001 &
#434
b10100001 #
b10100011 $
b10100100 %
b10100010 &
#435
b10110111 #
b10111001 $
b10111010 %
b10111000 &
#436
b01001111 #
b01010001 $
b01010010 %
b01010000 &
#437
b10000001 #
b10000011 $
b10000100 %
b10000010 &
#438
b11010110 #
b11011000 $
b11011001 %
b11010111 &
#439
b11101111 #
b11110001 $
b11110010 %
b11110000 &
#440
b01110011 #
b01110101 $
b01110110 %
b01110100 &
#441
b00101011 #
b00101101 $
b00101110 %
b00101100 &
#442
b00011000 #
b00011010 $
b00011011 %
b00011001 &
#443
b10101100 #
b10101110 $
b10101111 %
b10101101 &
#444
b01001011 #
b01001101 $
b01001110 %
b01001100 &
#445
b00110010 #
b00110100 $
b00110101 %
b00110011 &
#446
b11110001 #
b11110011 $
b11110100 %
b11110010 &
#447
b11111001 #
b11111011 $
b11111100 %
b11111010 &
#448
b11110010 #
b11110100 $
b11110101 %
b11110011 &
#449
b00000010 #
b00000100 $
b00000101 %
b00000011 &
#450
b11001101 #
b11001111 $
b11010000 %
b11001110 &
#451
b00110010 #
b00110100 $
b00110101 %
b00110011 &
#452
b11011101 #
b11011111 $
b11100000 %
b11011110 &
#453
b10111001 #
b10111011 $
b10111100 %
b10111010 &
#454
b10100110 #
b10101000 $
b10101001 %
b10100111 &
#455
b11110010 #
b11110100 $
b11110101 %
b11110011 &
#456
b01100010 #
b01100100 $
b01100101 %
b01100011 &
#457
b11011011 #
b11011101 $
b11011110 %
b11011100 &
#458
b00001000 #
b00001010 $
b00001011 %
b00001001 &
#459
b10110010 #
b10110100 $
b10110101 %
b10110011 &
#460
b01001001 #
b01001011 $
b01001100 %
b01001010 &
#461
b11000010 #
b11000100 $
b11000101 %
b11000011 &
#462
b11001101 #
b11001111 $
b11010000 %
b11001110 &
#463
b10010011 #
b10010101 $
b10010110 %
b10010100 &
#464
b11101101 #
b11101111 $
b11110000 %
b11101110 &
#465
b10101000 #
b10101010 $
b10101011 %
b10101001 &
#466
b11111000 #
b11111010 $
b11111011 %
b11111001 &
#467
b00100100 #
b00100110 $
b00100111 %
b00100101 &
#468
b11001110 #
b11010000 $
b11010001 %
b11001111 &
#469
b01101101 #
b01101111 $
b01110000 %
b01101110 &
